; generated by Slic3r 1.3.0 on 2020-11-04 at 17:45:32

; external perimeters extrusion width = 0.44mm (0.00mm^3/s)
; perimeters extrusion width = 0.42mm (0.00mm^3/s)
; infill extrusion width = 0.42mm (0.00mm^3/s)
; solid infill extrusion width = 0.42mm (2.67mm^3/s)
; top infill extrusion width = 0.42mm (2.00mm^3/s)

M107
M104 S200 ; set temperature
G28 ; home all axes
G1 Z5 F5000 ; lift nozzle

; Filament gcode

M109 S200 ; set temperature and wait for it to be reached
G21 ; set units to millimeters
G90 ; use absolute coordinates
M82 ; use absolute distances for extrusion
G92 E0
G1 Z0.350 F7800.000
G1 E-2.00000 F2400.00000
G92 E0
G1 X37.915 Y22.848 F7800.000
G1 E2.00000 F2400.00000
G1 F2400
G1 X39.668 Y21.369 E2.20854
G1 X41.820 Y20.576 E2.41708
G1 X43.000 Y20.470 E2.52479
G1 X57.000 Y20.470 E3.79781
G1 X59.259 Y20.867 E4.00635
G1 X61.247 Y22.011 E4.21489
G1 X62.726 Y23.763 E4.42344
G1 X63.519 Y25.916 E4.63198
G1 X63.625 Y27.095 E4.73969
G1 X63.618 Y33.232 E5.29774
G1 X62.014 Y69.747 E8.62117
G1 X61.518 Y71.986 E8.82971
G1 X60.647 Y73.494 E8.98811
G1 X58.002 Y76.934 E9.38265
G1 X56.310 Y78.483 E9.59120
G1 X53.263 Y79.500 E9.88327
G1 X52.629 Y79.530 E9.94100
G1 X47.371 Y79.530 E10.41911
G1 X46.858 Y79.510 E10.46581
G1 X46.737 Y79.500 E10.47685
G1 X44.515 Y78.929 E10.68539
G1 X41.998 Y76.934 E10.97746
G1 X39.353 Y73.494 E11.37201
G1 X38.291 Y71.462 E11.58055
G1 X37.986 Y69.747 E11.73895
G1 X36.375 Y32.942 E15.08883
G1 X36.375 Y27.095 E15.62043
G1 X36.772 Y24.836 E15.82897
G1 X37.886 Y22.900 E16.03206
G1 E14.03206 F2400.00000
G92 E0
G1 X47.805 Y70.435 F7800.000
G1 E2.00000 F2400.00000
G1 F2400
G1 X47.788 Y71.866 E2.13010
G1 X46.518 Y70.283 E2.31463
G1 X47.745 Y70.428 E2.42703
G1 E0.42703 F2400.00000
G92 E0
G1 X52.195 Y70.435 F7800.000
G1 E2.00000 F2400.00000
G1 F2400
G1 X53.482 Y70.283 E2.11785
G1 X52.212 Y71.866 E2.30239
G1 X52.196 Y70.495 E2.42703
G1 E0.42703 F2400.00000
G92 E0
G1 X55.400 Y30.730 F7800.000
G1 E2.00000 F2400.00000
G1 F2400
G1 X54.809 Y30.564 E2.05584
G1 X51.674 Y29.940 E2.34652
G1 X51.672 Y30.060 E2.35746
G1 X50.000 Y29.994 E2.50964
G1 X48.328 Y30.060 E2.66182
G1 X48.326 Y29.940 E2.67275
G1 X45.191 Y30.564 E2.96343
G1 X44.600 Y30.730 E3.01927
G1 X44.600 Y28.695 E3.20433
G1 X55.400 Y28.695 E4.18641
G1 X55.400 Y30.670 E4.36600
G1 E2.36600 F2400.00000
G92 E0
G1 X52.289 Y30.699 F7800.000
G1 E2.00000 F2400.00000
G1 F2400
G1 X52.187 Y39.151 E2.76854
G1 X51.816 Y39.151 E2.80222
G1 X51.714 Y30.687 E3.57189
G1 X50.000 Y30.620 E3.72782
G1 X48.286 Y30.687 E3.88376
G1 X48.184 Y39.151 E4.65343
G1 X47.813 Y39.151 E4.68711
G1 X47.711 Y30.699 E5.45565
G1 X45.337 Y31.172 E5.67572
G1 X43.975 Y31.556 E5.80439
G1 X43.975 Y28.070 E6.12132
G1 X56.025 Y28.070 E7.21704
G1 X56.025 Y31.556 E7.53398
G1 X54.663 Y31.172 E7.66264
G1 X52.348 Y30.711 E7.87726
G1 X52.905 Y31.459 F7800.000
G1 F2400
G1 X52.438 Y69.777 E11.36176
G1 X53.027 Y69.707 E11.41565
G1 X54.687 Y69.363 E11.56979
G1 X54.838 Y69.591 E11.59467
G1 X52.469 Y72.545 E11.93901
G1 X51.596 Y72.545 E12.01837
G1 X51.096 Y31.288 E15.77014
G1 X50.000 Y31.245 E15.86987
G1 X48.904 Y31.288 E15.96960
G1 X48.404 Y72.545 E19.72137
G1 X47.531 Y72.545 E19.80073
G1 X45.162 Y69.591 E20.14507
G1 X45.313 Y69.363 E20.16995
G1 X46.973 Y69.707 E20.32409
G1 X47.562 Y69.777 E20.37798
G1 X47.095 Y31.459 E23.86248
G1 X45.483 Y31.780 E24.01194
G1 X44.020 Y32.192 E24.15009
G1 X43.350 Y32.439 E24.21507
G1 X43.350 Y27.445 E24.66918
G1 X56.650 Y27.445 E25.87855
G1 X56.650 Y32.439 E26.33266
G1 X55.980 Y32.192 E26.39764
G1 X54.517 Y31.780 E26.53580
G1 X52.964 Y31.471 E26.67980
G1 X52.507 Y31.425 F7800.000
G1 E24.67980 F2400.00000
G92 E0
G1 X53.166 Y29.458 F7800.000
G1 E2.00000 F2400.00000
G1 F2400
G1 X52.565 Y29.399 E2.06564
G1 F2400
G1 X52.107 Y29.354 E2.11002
G1 F2400
G1 X51.649 Y29.309 E2.14837
G1 F2400
G1 X51.420 Y29.286 E2.16585
G1 X51.332 Y29.306 E2.17275
G1 F2400
G1 X51.066 Y29.365 E2.19659
G1 X49.987 Y29.345 E2.29099
G1 X48.934 Y29.365 E2.38306
G1 X48.757 Y29.326 E2.39896
G1 F2400
G1 X48.580 Y29.286 E2.41281
G1 X48.370 Y29.307 E2.42884
G1 F2400
G1 X47.952 Y29.348 E2.46595
G1 F2400
G1 X47.533 Y29.390 E2.50810
G1 X47.533 Y29.390 F7800.000
G1 F2400
G1 X46.834 Y29.458 E2.58445
G1 X45.988 Y29.962 F7800.000
G1 F2400
G1 X46.474 Y29.476 E2.65948
G1 X46.435 Y29.077 E2.70326
G1 X45.813 Y29.077 E2.77111
G1 X44.982 Y29.909 E2.89946
G1 X44.982 Y29.563 E2.93717
G1 X45.327 Y29.563 E2.97489
G1 E0.97489 F2400.00000
G92 E0
G1 X54.071 Y29.563 F7800.000
G1 E2.00000 F2400.00000
G1 F2400
G1 X53.565 Y29.563 E2.05528
G1 X53.525 Y29.962 E2.09908
G1 X53.648 Y29.987 E2.11267
G1 X54.557 Y29.077 E2.25307
G1 X55.018 Y29.077 E2.30336
G1 X55.018 Y29.677 E2.36878
G1 X54.532 Y30.163 E2.44380
G1 E0.44380 F2400.00000
G92 E0
G1 X52.001 Y39.463 F7800.000
G1 E2.00000 F2400.00000
G1 F2400
G1 X52.001 Y43.554 E2.53615
G1 F2400
G1 X52.001 Y47.645 E3.01433
G1 F2400
G1 X52.001 Y51.735 E3.43453
G1 F2400
G1 X52.001 Y55.826 E3.79676
G1 F2400
G1 X52.001 Y59.917 E4.10102
G1 F2400
G1 X52.001 Y64.008 E4.34730
G1 F2400
G1 X52.000 Y68.098 E4.53561
G1 F2400
G1 X52.000 Y70.144 E4.60078
G1 E2.60078 F2400.00000
G92 E0
G1 X48.000 Y70.144 F7800.000
G1 E2.00000 F2400.00000
G1 F2400
G1 X48.000 Y68.098 E2.06517
G1 F2400
G1 X47.999 Y64.008 E2.25348
G1 F2400
G1 X47.999 Y59.917 E2.49976
G1 F2400
G1 X47.999 Y55.826 E2.80402
G1 F2400
G1 X47.999 Y51.735 E3.16625
G1 F2400
G1 X47.999 Y47.645 E3.58645
G1 F2400
G1 X47.999 Y43.554 E4.06463
G1 F2400
G1 X47.999 Y39.463 E4.60077
G1 Z0.750 F7800.000
G1 X47.882 Y70.367 F7800.000
G1 F900
G1 X47.861 Y72.080 E4.69599
G1 X46.299 Y70.132 E4.83476
G1 X46.887 Y70.249 E4.86808
G1 X47.823 Y70.360 E4.92043
G1 E2.92043 F2400.00000
G92 E0
G1 X52.118 Y70.367 F7800.000
G1 E2.00000 F2400.00000
G1 F900
G1 X53.113 Y70.249 E2.05569
G1 X53.701 Y70.132 E2.08901
G1 X52.139 Y72.080 E2.22778
G1 X52.118 Y70.427 E2.31966
G1 X52.365 Y30.793 F7800.000
G1 F3600
G1 X52.100 Y52.548 E3.52875
G1 X51.902 Y52.548 E3.53976
G1 X51.638 Y30.761 E4.75061
G1 X50.000 Y30.696 E4.84170
G1 X48.362 Y30.761 E4.93279
G1 X48.098 Y52.549 E6.14365
G1 X47.900 Y52.549 E6.15466
G1 X47.635 Y30.793 E7.36375
G1 X45.355 Y31.246 E7.49295
G1 X43.898 Y31.657 E7.57704
G1 X43.898 Y27.994 E7.78061
G1 X56.102 Y27.994 E8.45876
G1 X56.102 Y31.657 E8.66233
G1 X54.645 Y31.246 E8.74642
G1 X52.424 Y30.804 E8.87229
G1 X52.694 Y31.199 F7800.000
G1 F3600
G1 X52.221 Y70.018 E11.02970
G1 X53.061 Y69.919 E11.07666
G1 X54.536 Y69.626 E11.16024
G1 X52.366 Y72.331 E11.35298
G1 X51.807 Y72.331 E11.38401
G1 X51.308 Y31.082 E13.67643
G1 X50.000 Y31.031 E13.74915
G1 X48.692 Y31.082 E13.82187
G1 X48.193 Y72.331 E16.11428
G1 X47.634 Y72.331 E16.14532
G1 X45.464 Y69.626 E16.33805
G1 X46.939 Y69.919 E16.42163
G1 X47.779 Y70.018 E16.46860
G1 X47.306 Y31.199 E18.62601
G1 X45.433 Y31.571 E18.73214
G1 X43.954 Y31.988 E18.81750
G1 X43.564 Y32.132 E18.84061
G1 X43.564 Y27.659 E19.08916
G1 X56.436 Y27.659 E19.80445
G1 X56.436 Y32.132 E20.05300
G1 X56.046 Y31.988 E20.07611
G1 X54.567 Y31.571 E20.16147
G1 X52.753 Y31.210 E20.26427
G1 X53.033 Y31.617 F7800.000
G1 F3396.7
G1 X52.570 Y69.631 E22.50331
G1 X53.007 Y69.579 E22.52920
G1 X54.487 Y69.284 E22.61808
G1 X54.799 Y69.196 E22.63716
G1 X55.096 Y69.477 E22.66124
G1 X52.531 Y72.675 E22.90274
G1 X51.467 Y72.675 E22.96538
G1 X50.967 Y31.413 E25.39577
G1 X50.000 Y31.375 E25.45279
G1 X49.033 Y31.413 E25.50982
G1 X48.533 Y72.675 E27.94021
G1 X47.469 Y72.675 E28.00285
G1 X44.904 Y69.477 E28.24435
G1 X45.201 Y69.196 E28.26843
G1 X45.513 Y69.284 E28.28751
G1 X46.993 Y69.579 E28.37639
G1 X47.430 Y69.631 E28.40228
G1 X46.967 Y31.617 E30.64132
G1 X45.513 Y31.906 E30.72861
G1 X44.061 Y32.316 E30.81749
G1 X43.220 Y32.626 E30.87027
G1 X43.220 Y27.315 E31.18305
G1 X56.780 Y27.315 E31.98169
G1 X56.780 Y32.626 E32.29447
G1 X55.939 Y32.316 E32.34725
G1 X54.487 Y31.906 E32.43613
G1 X53.092 Y31.629 E32.51989
G1 X52.635 Y31.582 F7800.000
G1 X52.002 Y30.608 F7800.000
G1 F1200
G1 X52.001 Y34.690 E32.72782
G1 F1200
G1 X52.001 Y38.773 E32.86948
G1 F1200
G1 X52.001 Y42.855 E32.94484
G1 F1200
G1 X52.001 Y44.896 E32.94939
G1 E30.94939 F2400.00000
G92 E0
G1 X47.999 Y44.896 F7800.000
G1 E2.00000 F2400.00000
G1 F1200
G1 X47.999 Y42.855 E2.00454
G1 F1200
G1 X47.999 Y38.773 E2.07991
G1 F1200
G1 X47.999 Y34.690 E2.22156
G1 F1200
G1 X47.998 Y30.608 E2.42950
G1 X44.102 Y31.085 F7800.000
G1 F1200
G1 X44.363 Y31.345 E2.45029
G1 X44.738 Y31.240 E2.47231
G1 X44.102 Y30.605 E2.52309
G1 X44.102 Y30.124 E2.55026
G1 X45.113 Y31.134 E2.63102
G1 X45.493 Y31.034 E2.65326
G1 X44.102 Y29.643 E2.76445
G1 X44.102 Y29.162 E2.79162
G1 X45.894 Y30.954 E2.93486
G1 X46.295 Y30.874 E2.95798
G1 X44.102 Y28.682 E3.13328
G1 X44.102 Y28.201 E3.16045
G1 X46.696 Y30.794 E3.36781
G1 X47.097 Y30.715 E3.39092
G1 X44.580 Y28.198 E3.59214
G1 X45.061 Y28.198 E3.61932
G1 X47.498 Y30.635 E3.81416
G1 X47.598 Y30.615 E3.81993
G1 X47.598 Y30.404 E3.83188
G1 X47.748 Y30.404 E3.84033
G1 X45.542 Y28.198 E4.01668
G1 X46.022 Y28.198 E4.04386
G1 X48.228 Y30.404 E4.22021
G1 X48.659 Y30.404 E4.24453
G1 X48.659 Y30.550 E4.25279
G1 X48.848 Y30.542 E4.26350
G1 X46.503 Y28.198 E4.45093
G1 X46.984 Y28.198 E4.47811
G1 X49.310 Y30.524 E4.66410
G1 X49.773 Y30.506 E4.69026
G1 X47.465 Y28.198 E4.87479
G1 X47.945 Y28.198 E4.90197
G1 X50.244 Y30.496 E5.08574
G1 X50.744 Y30.516 E5.11405
G1 X48.426 Y28.198 E5.29939
G1 X48.907 Y28.198 E5.32656
G1 X51.245 Y30.536 E5.51348
G1 X51.601 Y30.550 E5.53365
G1 X51.601 Y30.411 E5.54146
G1 X49.388 Y28.198 E5.71844
G1 X49.868 Y28.198 E5.74562
G1 X52.074 Y30.404 E5.92197
G1 X52.555 Y30.404 E5.94915
G1 X50.349 Y28.198 E6.12550
G1 X50.830 Y28.198 E6.15268
G1 X53.393 Y30.760 E6.35756
G1 X53.993 Y30.880 E6.39215
G1 X51.311 Y28.198 E6.60656
G1 X51.791 Y28.198 E6.63374
G1 X54.593 Y30.999 E6.85770
G1 X55.232 Y31.158 E6.89494
G1 X52.272 Y28.198 E7.13159
G1 X52.753 Y28.198 E7.15877
G1 X55.898 Y31.342 E7.41017
G1 X55.898 Y30.862 E7.43735
G1 X53.234 Y28.198 E7.65031
G1 X53.714 Y28.198 E7.67749
G1 X55.898 Y30.381 E7.85202
G1 X55.898 Y29.900 E7.87920
G1 X54.195 Y28.198 E8.01530
G1 X54.676 Y28.198 E8.04247
G1 X55.898 Y29.419 E8.14014
G1 X55.898 Y28.939 E8.16731
G1 X55.157 Y28.198 E8.22654
G1 X55.637 Y28.198 E8.25372
G1 X55.898 Y28.458 E8.27451
G1 X52.792 Y30.641 F7800.000
G1 F1200
G1 X52.402 Y30.250 E8.30573
G1 X52.402 Y30.144 E8.31176
G1 X52.295 Y30.144 E8.31780
G1 X52.001 Y52.716 F7800.000
G1 F1200
G1 X52.001 Y56.604 E8.59971
G1 F1200
G1 X52.001 Y60.492 E8.82164
G1 F1200
G1 X52.001 Y64.380 E8.98359
G1 F1200
G1 X52.000 Y68.269 E9.08555
G1 F1200
G1 X52.000 Y70.213 E9.10654
G1 X52.331 Y71.014 F7800.000
G1 F1200
G1 X52.591 Y71.274 E9.12724
G1 X52.804 Y71.008 E9.14640
G1 X52.329 Y70.533 E9.18420
G1 X52.757 Y70.483 E9.20846
G1 X53.017 Y70.743 E9.22915
G1 E7.22915 F2400.00000
G92 E0
G1 X48.000 Y70.213 F7800.000
G1 E2.00000 F2400.00000
G1 F1200
G1 X48.000 Y68.269 E2.02099
G1 F1200
G1 X47.999 Y64.380 E2.12296
G1 F1200
G1 X47.999 Y60.492 E2.28490
G1 F1200
G1 X47.999 Y56.604 E2.50684
G1 F1200
G1 X47.999 Y52.716 E2.78875
G1 X47.674 Y70.794 F7800.000
G1 F1200
G1 X47.414 Y70.534 E2.80976
G1 X46.983 Y70.483 E2.83460
G1 X47.408 Y71.013 E2.87345
G1 X47.668 Y71.273 E2.89445
G1 Z1.150 F7800.000
G1 E0.89445 F2400.00000
G92 E0
G1 X53.701 Y70.132 F7800.000
G1 E2.00000 F2400.00000
G1 F900
G1 X52.139 Y72.080 E2.13878
G1 X52.118 Y70.367 E2.23399
G1 X53.113 Y70.249 E2.28968
G1 X53.642 Y70.144 E2.31966
G1 E0.31966 F2400.00000
G92 E0
G1 X47.882 Y70.367 F7800.000
G1 E2.00000 F2400.00000
G1 F900
G1 X47.861 Y72.080 E2.09521
G1 X46.299 Y70.132 E2.23399
G1 X46.887 Y70.249 E2.26730
G1 X47.823 Y70.360 E2.31966
G1 X47.635 Y30.793 F7800.000
G1 F3600
G1 X45.355 Y31.246 E2.44887
G1 X43.898 Y31.657 E2.53295
G1 X43.898 Y27.994 E2.73652
G1 X56.102 Y27.994 E3.41467
G1 X56.102 Y31.657 E3.61824
G1 X54.645 Y31.246 E3.70233
G1 X52.365 Y30.793 E3.83154
G1 X52.100 Y52.549 E5.04063
G1 X51.902 Y52.549 E5.05163
G1 X51.638 Y30.761 E6.26249
G1 X50.000 Y30.696 E6.35358
G1 X48.362 Y30.761 E6.44467
G1 X48.098 Y52.549 E7.65553
G1 X47.900 Y52.549 E7.66654
G1 X47.636 Y30.853 E8.87229
G1 X47.306 Y31.199 F7800.000
G1 F3600
G1 X45.433 Y31.571 E8.97842
G1 X43.954 Y31.988 E9.06379
G1 X43.564 Y32.132 E9.08689
G1 X43.564 Y27.659 E9.33544
G1 X56.436 Y27.659 E10.05074
G1 X56.436 Y32.132 E10.29929
G1 X56.046 Y31.988 E10.32239
G1 X54.567 Y31.571 E10.40776
G1 X52.694 Y31.199 E10.51389
G1 X52.221 Y70.018 E12.67130
G1 X53.061 Y69.919 E12.71826
G1 X54.536 Y69.626 E12.80184
G1 X52.366 Y72.331 E12.99458
G1 X51.807 Y72.331 E13.02561
G1 X51.308 Y31.082 E15.31802
G1 X50.000 Y31.031 E15.39075
G1 X48.692 Y31.082 E15.46347
G1 X48.193 Y72.331 E17.75588
G1 X47.634 Y72.331 E17.78691
G1 X45.464 Y69.626 E17.97965
G1 X46.939 Y69.919 E18.06323
G1 X47.779 Y70.018 E18.11020
G1 X47.307 Y31.259 E20.26427
G1 X46.967 Y31.617 F7800.000
G1 F3396.7
G1 X45.513 Y31.906 E20.35156
G1 X44.061 Y32.316 E20.44045
G1 X43.220 Y32.626 E20.49322
G1 X43.220 Y27.315 E20.80600
G1 X56.780 Y27.315 E21.60464
G1 X56.780 Y32.626 E21.91742
G1 X55.939 Y32.316 E21.97020
G1 X54.487 Y31.906 E22.05908
G1 X53.033 Y31.617 E22.14637
G1 X52.570 Y69.631 E24.38542
G1 X53.007 Y69.579 E24.41130
G1 X54.487 Y69.284 E24.50018
G1 X54.799 Y69.196 E24.51927
G1 X55.096 Y69.477 E24.54335
G1 X52.531 Y72.675 E24.78484
G1 X51.467 Y72.675 E24.84748
G1 X50.967 Y31.413 E27.27787
G1 X50.000 Y31.375 E27.33490
G1 X49.033 Y31.413 E27.39192
G1 X48.533 Y72.675 E29.82231
G1 X47.469 Y72.675 E29.88495
G1 X44.904 Y69.477 E30.12645
G1 X45.201 Y69.196 E30.15053
G1 X45.513 Y69.284 E30.16961
G1 X46.993 Y69.579 E30.25850
G1 X47.430 Y69.631 E30.28438
G1 X46.967 Y31.677 E32.51989
G1 X46.914 Y31.221 F7800.000
G1 X47.998 Y30.608 F7800.000
G1 F1200
G1 X47.999 Y34.690 E32.72783
G1 F1200
G1 X47.999 Y38.773 E32.86948
G1 F1200
G1 X47.999 Y42.855 E32.94485
G1 F1200
G1 X47.999 Y44.896 E32.94939
G1 E30.94939 F2400.00000
G92 E0
G1 X52.001 Y44.896 F7800.000
G1 E2.00000 F2400.00000
G1 F1200
G1 X52.001 Y42.855 E2.00454
G1 F1200
G1 X52.001 Y38.773 E2.07991
G1 F1200
G1 X52.001 Y34.690 E2.22156
G1 F1200
G1 X52.002 Y30.608 E2.42950
G1 X55.637 Y31.345 F7800.000
G1 F1200
G1 X55.898 Y31.085 E2.45029
G1 X55.898 Y30.605 E2.47747
G1 X55.262 Y31.240 E2.52824
G1 X54.887 Y31.134 E2.55026
G1 X55.898 Y30.124 E2.63101
G1 X55.898 Y29.643 E2.65819
G1 X54.507 Y31.034 E2.76937
G1 X54.106 Y30.954 E2.79248
G1 X55.898 Y29.162 E2.93572
G1 X55.898 Y28.682 E2.96290
G1 X53.705 Y30.874 E3.13819
G1 X53.304 Y30.794 E3.16131
G1 X55.898 Y28.198 E3.36878
G1 X55.420 Y28.198 E3.39579
G1 X52.903 Y30.715 E3.59701
G1 X52.502 Y30.635 E3.62012
G1 X54.939 Y28.198 E3.81497
G1 X54.458 Y28.198 E3.84214
G1 X52.252 Y30.404 E4.01850
G1 X51.772 Y30.404 E4.04568
G1 X53.978 Y28.198 E4.22203
G1 X53.497 Y28.198 E4.24921
G1 X51.152 Y30.542 E4.43664
G1 X50.690 Y30.524 E4.46281
G1 X53.016 Y28.198 E4.64880
G1 X52.535 Y28.198 E4.67598
G1 X50.227 Y30.506 E4.86051
G1 X49.756 Y30.496 E4.88715
G1 X52.055 Y28.198 E5.07091
G1 X51.574 Y28.198 E5.09809
G1 X49.256 Y30.516 E5.28343
G1 X48.755 Y30.536 E5.31174
G1 X51.093 Y28.198 E5.49865
G1 X50.612 Y28.198 E5.52583
G1 X48.399 Y30.411 E5.70281
G1 X47.926 Y30.404 E5.72955
G1 X50.132 Y28.198 E5.90590
G1 X49.651 Y28.198 E5.93308
G1 X47.445 Y30.404 E6.10943
G1 X47.338 Y30.404 E6.11547
G1 X47.338 Y30.510 E6.12150
G1 X47.208 Y30.641 E6.13194
G1 X46.608 Y30.760 E6.16653
G1 X49.170 Y28.198 E6.37141
G1 X48.689 Y28.198 E6.39858
G1 X46.007 Y30.880 E6.61300
G1 X45.407 Y30.999 E6.64759
G1 X48.209 Y28.198 E6.87155
G1 X47.728 Y28.198 E6.89873
G1 X44.768 Y31.158 E7.13537
G1 X44.102 Y31.345 E7.17445
G1 X47.247 Y28.198 E7.42598
G1 X46.766 Y28.198 E7.45316
G1 X44.102 Y30.862 E7.66612
G1 X44.102 Y30.381 E7.69330
G1 X46.286 Y28.198 E7.86784
G1 X45.805 Y28.198 E7.89501
G1 X44.102 Y29.900 E8.03111
G1 X44.102 Y29.419 E8.05829
G1 X45.324 Y28.198 E8.15596
G1 X44.843 Y28.198 E8.18313
G1 X44.102 Y28.939 E8.24236
G1 X44.102 Y28.458 E8.26954
G1 X44.363 Y28.198 E8.29033
G1 E6.29033 F2400.00000
G92 E0
G1 X47.999 Y52.716 F7800.000
G1 E2.00000 F2400.00000
G1 F1200
G1 X47.999 Y56.604 E2.28191
G1 F1200
G1 X47.999 Y60.492 E2.50385
G1 F1200
G1 X47.999 Y64.380 E2.66579
G1 F1200
G1 X48.000 Y68.269 E2.76776
G1 F1200
G1 X48.000 Y70.213 E2.78875
G1 X47.669 Y71.014 F7800.000
G1 F1200
G1 X47.409 Y71.274 E2.80944
G1 X47.196 Y71.008 F7800.000
G1 F1200
G1 X47.671 Y70.533 E2.84724
G1 X47.243 Y70.483 E2.87149
G1 X46.983 Y70.742 E2.89218
G1 E0.89218 F2400.00000
G92 E0
G1 X52.000 Y70.213 F7800.000
G1 E2.00000 F2400.00000
G1 F1200
G1 X52.000 Y68.269 E2.02099
G1 F1200
G1 X52.001 Y64.380 E2.12296
G1 F1200
G1 X52.001 Y60.492 E2.28490
G1 F1200
G1 X52.001 Y56.604 E2.50683
G1 F1200
G1 X52.001 Y52.716 E2.78875
G1 X52.326 Y70.794 F7800.000
G1 F1200
G1 X52.586 Y70.534 E2.80974
G1 X53.017 Y70.483 E2.83458
G1 X52.592 Y71.013 E2.87344
G1 X52.331 Y71.274 E2.89448
M106 S214.2
G1 Z1.550 F7800.000
G1 E0.89448 F2400.00000
G92 E0
G1 X46.299 Y70.132 F7800.000
G1 E2.00000 F2400.00000
G1 F900
G1 X46.887 Y70.249 E2.03332
G1 X47.882 Y70.367 E2.08901
G1 X47.861 Y72.080 E2.18422
G1 X46.337 Y70.179 E2.31966
G1 E0.31966 F2400.00000
G92 E0
G1 X52.118 Y70.367 F7800.000
G1 E2.00000 F2400.00000
G1 F900
G1 X53.113 Y70.249 E2.05569
G1 X53.701 Y70.132 E2.08901
G1 X52.139 Y72.080 E2.22778
G1 X52.118 Y70.427 E2.31966
G1 X52.365 Y30.793 F7800.000
G1 F3600
G1 X52.100 Y52.549 E3.52875
G1 X51.902 Y52.549 E3.53976
G1 X51.638 Y30.761 E4.75061
G1 X50.000 Y30.696 E4.84170
G1 X48.362 Y30.761 E4.93280
G1 X48.098 Y52.549 E6.14365
G1 X47.900 Y52.549 E6.15466
G1 X47.635 Y30.793 E7.36375
G1 X45.355 Y31.246 E7.49296
G1 X43.898 Y31.657 E7.57704
G1 X43.898 Y27.994 E7.78061
G1 X56.102 Y27.994 E8.45876
G1 X56.102 Y31.657 E8.66233
G1 X54.645 Y31.246 E8.74642
G1 X52.424 Y30.804 E8.87229
G1 X52.694 Y31.199 F7800.000
G1 F3600
G1 X52.221 Y70.018 E11.02970
G1 X53.061 Y69.919 E11.07666
G1 X54.536 Y69.626 E11.16025
G1 X52.366 Y72.331 E11.35298
G1 X51.807 Y72.331 E11.38401
G1 X51.308 Y31.082 E13.67643
G1 X50.000 Y31.031 E13.74915
G1 X48.692 Y31.082 E13.82187
G1 X48.193 Y72.331 E16.11428
G1 X47.634 Y72.331 E16.14532
G1 X45.464 Y69.626 E16.33805
G1 X46.939 Y69.919 E16.42164
G1 X47.779 Y70.018 E16.46860
G1 X47.306 Y31.199 E18.62601
G1 X45.433 Y31.571 E18.73214
G1 X43.954 Y31.988 E18.81750
G1 X43.564 Y32.132 E18.84061
G1 X43.564 Y27.659 E19.08916
G1 X56.436 Y27.659 E19.80445
G1 X56.436 Y32.132 E20.05300
G1 X56.046 Y31.988 E20.07611
G1 X54.567 Y31.571 E20.16147
G1 X52.753 Y31.210 E20.26427
G1 X53.033 Y31.617 F7800.000
G1 F3396.7
G1 X52.570 Y69.631 E22.50331
G1 X53.007 Y69.579 E22.52920
G1 X54.487 Y69.284 E22.61808
G1 X54.799 Y69.196 E22.63716
G1 X55.096 Y69.477 E22.66124
G1 X52.531 Y72.675 E22.90274
G1 X51.467 Y72.675 E22.96538
G1 X50.967 Y31.413 E25.39577
G1 X50.000 Y31.375 E25.45279
G1 X49.033 Y31.413 E25.50982
G1 X48.533 Y72.675 E27.94021
G1 X47.469 Y72.675 E28.00285
G1 X44.904 Y69.477 E28.24435
G1 X45.201 Y69.196 E28.26843
G1 X45.513 Y69.284 E28.28751
G1 X46.993 Y69.579 E28.37639
G1 X47.430 Y69.631 E28.40228
G1 X46.967 Y31.617 E30.64132
G1 X45.513 Y31.906 E30.72861
G1 X44.061 Y32.316 E30.81750
G1 X43.220 Y32.626 E30.87027
G1 X43.220 Y27.315 E31.18305
G1 X56.780 Y27.315 E31.98169
G1 X56.780 Y32.626 E32.29447
G1 X55.939 Y32.316 E32.34725
G1 X54.487 Y31.906 E32.43613
G1 X53.092 Y31.629 E32.51989
G1 X52.635 Y31.582 F7800.000
G1 X52.002 Y30.608 F7800.000
G1 F1200
G1 X52.001 Y34.690 E32.72782
G1 F1200
G1 X52.001 Y38.773 E32.86948
G1 F1200
G1 X52.001 Y42.855 E32.94485
G1 F1200
G1 X52.001 Y44.896 E32.94939
G1 E30.94939 F2400.00000
G92 E0
G1 X47.999 Y44.896 F7800.000
G1 E2.00000 F2400.00000
G1 F1200
G1 X47.999 Y42.855 E2.00454
G1 F1200
G1 X47.999 Y38.773 E2.07991
G1 F1200
G1 X47.999 Y34.690 E2.22156
G1 F1200
G1 X47.998 Y30.608 E2.42950
G1 X44.103 Y31.085 F7800.000
G1 F1200
G1 X44.363 Y31.345 E2.45029
G1 X44.738 Y31.240 E2.47231
G1 X44.103 Y30.605 E2.52309
G1 X44.103 Y30.124 E2.55026
G1 X45.113 Y31.134 E2.63101
G1 X45.493 Y31.034 E2.65326
G1 X44.103 Y29.643 E2.76444
G1 X44.103 Y29.162 E2.79162
G1 X45.894 Y30.954 E2.93486
G1 X46.295 Y30.874 E2.95797
G1 X44.103 Y28.682 E3.13327
G1 X44.103 Y28.201 E3.16045
G1 X46.696 Y30.794 E3.36780
G1 X47.097 Y30.715 E3.39092
G1 X44.580 Y28.198 E3.59213
G1 X45.061 Y28.198 E3.61931
G1 X47.498 Y30.635 E3.81415
G1 X47.598 Y30.615 E3.81992
G1 X47.598 Y30.404 E3.83187
G1 X47.748 Y30.404 E3.84032
G1 X45.542 Y28.198 E4.01667
G1 X46.023 Y28.198 E4.04385
G1 X48.228 Y30.404 E4.22020
G1 X48.659 Y30.404 E4.24452
G1 X48.659 Y30.550 E4.25278
G1 X48.848 Y30.542 E4.26348
G1 X46.503 Y28.198 E4.45092
G1 X46.984 Y28.198 E4.47810
G1 X49.310 Y30.524 E4.66408
G1 X49.773 Y30.506 E4.69025
G1 X47.465 Y28.198 E4.87477
G1 X47.945 Y28.198 E4.90195
G1 X50.244 Y30.496 E5.08571
G1 X50.744 Y30.516 E5.11403
G1 X48.426 Y28.198 E5.29936
G1 X48.907 Y28.198 E5.32654
G1 X51.245 Y30.536 E5.51345
G1 X51.601 Y30.550 E5.53362
G1 X51.601 Y30.411 E5.54143
G1 X49.388 Y28.198 E5.71841
G1 X49.868 Y28.198 E5.74559
G1 X52.074 Y30.404 E5.92194
G1 X52.555 Y30.404 E5.94912
G1 X50.349 Y28.198 E6.12547
G1 X50.830 Y28.198 E6.15265
G1 X53.393 Y30.760 E6.35752
G1 X53.993 Y30.880 E6.39211
G1 X51.311 Y28.198 E6.60652
G1 X51.791 Y28.198 E6.63370
G1 X54.593 Y30.999 E6.85766
G1 X55.232 Y31.158 E6.89490
G1 X52.272 Y28.198 E7.13154
G1 X52.753 Y28.198 E7.15872
G1 X55.897 Y31.342 E7.41012
G1 X55.897 Y30.862 E7.43730
G1 X53.234 Y28.198 E7.65026
G1 X53.714 Y28.198 E7.67744
G1 X55.897 Y30.381 E7.85197
G1 X55.897 Y29.900 E7.87915
G1 X54.195 Y28.198 E8.01525
G1 X54.676 Y28.198 E8.04242
G1 X55.897 Y29.419 E8.14008
G1 X55.897 Y28.939 E8.16726
G1 X55.157 Y28.198 E8.22649
G1 X55.637 Y28.198 E8.25367
G1 X55.897 Y28.458 E8.27446
G1 X52.792 Y30.641 F7800.000
G1 F1200
G1 X52.402 Y30.250 E8.30568
G1 X52.402 Y30.144 E8.31171
G1 X52.295 Y30.144 E8.31775
G1 X52.001 Y52.716 F7800.000
G1 F1200
G1 X52.001 Y56.604 E8.59966
G1 F1200
G1 X52.001 Y60.492 E8.82159
G1 F1200
G1 X52.001 Y64.380 E8.98354
G1 F1200
G1 X52.000 Y68.269 E9.08550
G1 F1200
G1 X52.000 Y70.213 E9.10649
G1 X52.331 Y71.014 F7800.000
G1 F1200
G1 X52.591 Y71.274 E9.12718
G1 X52.804 Y71.008 E9.14634
G1 X52.329 Y70.533 E9.18414
G1 X52.757 Y70.483 E9.20839
G1 X53.017 Y70.743 E9.22908
G1 E7.22908 F2400.00000
G92 E0
G1 X48.000 Y70.213 F7800.000
G1 E2.00000 F2400.00000
G1 F1200
G1 X48.000 Y68.269 E2.02099
G1 F1200
G1 X47.999 Y64.380 E2.12296
G1 F1200
G1 X47.999 Y60.492 E2.28490
G1 F1200
G1 X47.999 Y56.604 E2.50684
G1 F1200
G1 X47.999 Y52.716 E2.78875
G1 X47.674 Y70.794 F7800.000
G1 F1200
G1 X47.414 Y70.534 E2.80976
G1 X46.983 Y70.483 E2.83459
G1 X47.408 Y71.013 E2.87344
G1 X47.668 Y71.273 E2.89444
G1 Z1.950 F7800.000
G1 X47.882 Y70.367 F7800.000
G1 F900
G1 X47.861 Y72.080 E2.98965
G1 X46.299 Y70.132 E3.12842
G1 X46.887 Y70.249 E3.16174
G1 X47.823 Y70.360 E3.21410
G1 E1.21410 F2400.00000
G92 E0
G1 X52.118 Y70.367 F7800.000
G1 E2.00000 F2400.00000
G1 F900
G1 X53.113 Y70.249 E2.05569
G1 X53.701 Y70.132 E2.08901
G1 X52.139 Y72.080 E2.22778
G1 X52.118 Y70.427 E2.31966
G1 X52.365 Y30.793 F7800.000
G1 F3600
G1 X52.100 Y52.549 E3.52875
G1 X51.902 Y52.549 E3.53976
G1 X51.638 Y30.761 E4.75061
G1 X50.000 Y30.696 E4.84170
G1 X48.362 Y30.761 E4.93280
G1 X48.098 Y52.549 E6.14365
G1 X47.900 Y52.549 E6.15466
G1 X47.635 Y30.793 E7.36375
G1 X45.355 Y31.246 E7.49296
G1 X43.898 Y31.657 E7.57705
G1 X43.898 Y27.994 E7.78061
G1 X56.102 Y27.994 E8.45877
G1 X56.102 Y31.657 E8.66233
G1 X54.645 Y31.246 E8.74642
G1 X52.424 Y30.804 E8.87229
G1 X52.694 Y31.199 F7800.000
G1 F3600
G1 X52.221 Y70.018 E11.02970
G1 X53.061 Y69.919 E11.07666
G1 X54.536 Y69.626 E11.16025
G1 X52.366 Y72.331 E11.35298
G1 X51.807 Y72.331 E11.38402
G1 X51.308 Y31.082 E13.67643
G1 X50.000 Y31.031 E13.74915
G1 X48.692 Y31.082 E13.82187
G1 X48.193 Y72.331 E16.11429
G1 X47.634 Y72.331 E16.14532
G1 X45.464 Y69.626 E16.33806
G1 X46.939 Y69.919 E16.42164
G1 X47.779 Y70.018 E16.46860
G1 X47.306 Y31.199 E18.62601
G1 X45.433 Y31.571 E18.73214
G1 X43.954 Y31.988 E18.81751
G1 X43.564 Y32.132 E18.84061
G1 X43.564 Y27.659 E19.08916
G1 X56.436 Y27.659 E19.80445
G1 X56.436 Y32.132 E20.05301
G1 X56.046 Y31.988 E20.07611
G1 X54.567 Y31.571 E20.16148
G1 X52.753 Y31.210 E20.26427
G1 X53.033 Y31.617 F7800.000
G1 F3396.7
G1 X52.570 Y69.631 E22.50332
G1 X53.007 Y69.579 E22.52920
G1 X54.487 Y69.284 E22.61808
G1 X54.799 Y69.196 E22.63717
G1 X55.096 Y69.477 E22.66125
G1 X52.531 Y72.675 E22.90274
G1 X51.467 Y72.675 E22.96538
G1 X50.967 Y31.413 E25.39577
G1 X50.000 Y31.375 E25.45280
G1 X49.033 Y31.413 E25.50982
G1 X48.533 Y72.675 E27.94021
G1 X47.469 Y72.675 E28.00285
G1 X44.904 Y69.477 E28.24435
G1 X45.201 Y69.196 E28.26843
G1 X45.513 Y69.284 E28.28751
G1 X46.993 Y69.579 E28.37640
G1 X47.430 Y69.631 E28.40228
G1 X46.967 Y31.617 E30.64132
G1 X45.513 Y31.906 E30.72861
G1 X44.061 Y32.316 E30.81750
G1 X43.220 Y32.626 E30.87027
G1 X43.220 Y27.315 E31.18305
G1 X56.780 Y27.315 E31.98169
G1 X56.780 Y32.626 E32.29448
G1 X55.939 Y32.316 E32.34725
G1 X54.487 Y31.906 E32.43613
G1 X53.092 Y31.629 E32.51989
G1 X52.635 Y31.582 F7800.000
G1 X52.002 Y30.608 F7800.000
G1 F1200
G1 X52.001 Y34.690 E32.72783
G1 F1200
G1 X52.001 Y38.773 E32.86948
G1 F1200
G1 X52.001 Y42.855 E32.94485
G1 F1200
G1 X52.001 Y44.896 E32.94939
G1 E30.94939 F2400.00000
G92 E0
G1 X47.999 Y44.896 F7800.000
G1 E2.00000 F2400.00000
G1 F1200
G1 X47.999 Y42.855 E2.00454
G1 F1200
G1 X47.999 Y38.773 E2.07991
G1 F1200
G1 X47.999 Y34.690 E2.22156
G1 F1200
G1 X47.998 Y30.608 E2.42950
G1 X44.363 Y28.198 F7800.000
G1 F1200
G1 X44.102 Y28.458 E2.45029
G1 X44.102 Y28.939 E2.47747
G1 X44.843 Y28.198 E2.53670
G1 X45.324 Y28.198 E2.56388
G1 X44.102 Y29.419 E2.66154
G1 X44.102 Y29.900 E2.68872
G1 X45.805 Y28.198 E2.82482
G1 X46.286 Y28.198 E2.85199
G1 X44.102 Y30.381 E3.02653
G1 X44.102 Y30.862 E3.05371
G1 X46.766 Y28.198 E3.26668
G1 X47.247 Y28.198 E3.29385
G1 X44.102 Y31.345 E3.54538
G1 X44.768 Y31.158 E3.58446
G1 X47.728 Y28.198 E3.82110
G1 X48.209 Y28.198 E3.84828
G1 X45.407 Y30.999 E4.07224
G1 X46.007 Y30.880 E4.10683
G1 X48.689 Y28.198 E4.32125
G1 X49.170 Y28.198 E4.34842
G1 X46.608 Y30.760 E4.55330
G1 X47.208 Y30.641 E4.58789
G1 X47.338 Y30.510 E4.59833
G1 X47.338 Y30.404 E4.60436
G1 X47.445 Y30.404 E4.61040
G1 X49.651 Y28.198 E4.78675
G1 X50.132 Y28.198 E4.81393
G1 X47.926 Y30.404 E4.99028
G1 X48.399 Y30.411 E5.01702
G1 X50.612 Y28.198 E5.19400
G1 X51.093 Y28.198 E5.22118
G1 X48.755 Y30.536 E5.40809
G1 X49.256 Y30.516 E5.43640
G1 X51.574 Y28.198 E5.62174
G1 X52.055 Y28.198 E5.64892
G1 X49.756 Y30.496 E5.83268
G1 X50.227 Y30.506 E5.85933
G1 X52.535 Y28.198 E6.04385
G1 X53.016 Y28.198 E6.07103
G1 X50.690 Y30.524 E6.25702
G1 X51.152 Y30.542 E6.28319
G1 X53.497 Y28.198 E6.47062
G1 X53.978 Y28.198 E6.49780
G1 X51.772 Y30.404 E6.67415
G1 X52.252 Y30.404 E6.70133
G1 X54.458 Y28.198 E6.87769
G1 X54.939 Y28.198 E6.90486
G1 X52.502 Y30.635 E7.09971
G1 X52.903 Y30.715 E7.12282
G1 X55.420 Y28.198 E7.32404
G1 X55.898 Y28.198 E7.35105
G1 X53.304 Y30.794 E7.55852
G1 X53.705 Y30.874 E7.58164
G1 X55.898 Y28.682 E7.75693
G1 X55.898 Y29.162 E7.78411
G1 X54.106 Y30.954 E7.92735
G1 X54.507 Y31.034 E7.95046
G1 X55.898 Y29.643 E8.06164
G1 X55.898 Y30.124 E8.08882
G1 X54.887 Y31.134 E8.16957
G1 X55.262 Y31.240 E8.19159
G1 X55.898 Y30.605 E8.24236
G1 X55.898 Y31.085 E8.26954
G1 X55.637 Y31.345 E8.29033
G1 E6.29033 F2400.00000
G92 E0
G1 X52.001 Y52.716 F7800.000
G1 E2.00000 F2400.00000
G1 F1200
G1 X52.001 Y56.604 E2.28191
G1 F1200
G1 X52.001 Y60.492 E2.50384
G1 F1200
G1 X52.001 Y64.380 E2.66579
G1 F1200
G1 X52.000 Y68.269 E2.76775
G1 F1200
G1 X52.000 Y70.213 E2.78874
G1 X52.326 Y70.794 F7800.000
G1 F1200
G1 X52.586 Y70.534 E2.80974
G1 X53.017 Y70.483 E2.83458
G1 X52.592 Y71.013 E2.87344
G1 X52.331 Y71.274 E2.89448
G1 E0.89448 F2400.00000
G92 E0
G1 X48.000 Y70.213 F7800.000
G1 E2.00000 F2400.00000
G1 F1200
G1 X48.000 Y68.269 E2.02099
G1 F1200
G1 X47.999 Y64.380 E2.12296
G1 F1200
G1 X47.999 Y60.492 E2.28490
G1 F1200
G1 X47.999 Y56.604 E2.50683
G1 F1200
G1 X47.999 Y52.716 E2.78875
G1 E0.78875 F2400.00000
G92 E0
G1 X46.983 Y70.742 F7800.000
G1 E2.00000 F2400.00000
G1 F1200
G1 X47.243 Y70.483 E2.02069
G1 X47.671 Y70.533 E2.04494
G1 X47.196 Y71.008 E2.08274
G1 X47.409 Y71.274 F7800.000
G1 F1200
G1 X47.669 Y71.014 E2.10343
G1 Z2.350 F7800.000
G1 X47.882 Y70.367 F7800.000
G1 F900
G1 X47.861 Y72.080 E2.19864
G1 X46.299 Y70.132 E2.33742
G1 X46.887 Y70.249 E2.37074
G1 X47.823 Y70.360 E2.42309
G1 E0.42309 F2400.00000
G92 E0
G1 X52.118 Y70.367 F7800.000
G1 E2.00000 F2400.00000
G1 F900
G1 X53.113 Y70.249 E2.05569
G1 X53.701 Y70.132 E2.08901
G1 X52.139 Y72.080 E2.22778
G1 X52.118 Y70.427 E2.31966
G1 X52.365 Y30.793 F7800.000
G1 F3600
G1 X52.100 Y52.548 E3.52875
G1 X51.902 Y52.548 E3.53976
G1 X51.638 Y30.761 E4.75061
G1 X50.000 Y30.696 E4.84170
G1 X48.362 Y30.761 E4.93279
G1 X48.098 Y52.549 E6.14365
G1 X47.900 Y52.549 E6.15466
G1 X47.635 Y30.793 E7.36375
G1 X45.355 Y31.246 E7.49295
G1 X43.898 Y31.657 E7.57704
G1 X43.898 Y27.994 E7.78061
G1 X56.102 Y27.994 E8.45876
G1 X56.102 Y31.657 E8.66233
G1 X54.645 Y31.246 E8.74642
G1 X52.424 Y30.804 E8.87229
G1 X52.694 Y31.199 F7800.000
G1 F3600
G1 X52.221 Y70.018 E11.02970
G1 X53.061 Y69.919 E11.07666
G1 X54.536 Y69.626 E11.16024
G1 X52.366 Y72.331 E11.35298
G1 X51.807 Y72.331 E11.38401
G1 X51.308 Y31.082 E13.67643
G1 X50.000 Y31.031 E13.74915
G1 X48.692 Y31.082 E13.82187
G1 X48.193 Y72.331 E16.11428
G1 X47.634 Y72.331 E16.14532
G1 X45.464 Y69.626 E16.33805
G1 X46.939 Y69.919 E16.42163
G1 X47.779 Y70.018 E16.46860
G1 X47.306 Y31.199 E18.62601
G1 X45.433 Y31.571 E18.73214
G1 X43.954 Y31.988 E18.81750
G1 X43.564 Y32.132 E18.84061
G1 X43.564 Y27.659 E19.08916
G1 X56.436 Y27.659 E19.80445
G1 X56.436 Y32.132 E20.05300
G1 X56.046 Y31.988 E20.07611
G1 X54.567 Y31.571 E20.16147
G1 X52.753 Y31.210 E20.26427
G1 X53.033 Y31.617 F7800.000
G1 F3396.7
G1 X52.570 Y69.631 E22.50331
G1 X53.007 Y69.579 E22.52920
G1 X54.487 Y69.284 E22.61808
G1 X54.799 Y69.196 E22.63716
G1 X55.096 Y69.477 E22.66124
G1 X52.531 Y72.675 E22.90274
G1 X51.467 Y72.675 E22.96538
G1 X50.967 Y31.413 E25.39577
G1 X50.000 Y31.375 E25.45279
G1 X49.033 Y31.413 E25.50982
G1 X48.533 Y72.675 E27.94021
G1 X47.469 Y72.675 E28.00285
G1 X44.904 Y69.477 E28.24435
G1 X45.201 Y69.196 E28.26843
G1 X45.513 Y69.284 E28.28751
G1 X46.993 Y69.579 E28.37639
G1 X47.430 Y69.631 E28.40228
G1 X46.967 Y31.617 E30.64132
G1 X45.513 Y31.906 E30.72861
G1 X44.061 Y32.316 E30.81749
G1 X43.220 Y32.626 E30.87027
G1 X43.220 Y27.315 E31.18305
G1 X56.780 Y27.315 E31.98169
G1 X56.780 Y32.626 E32.29447
G1 X55.939 Y32.316 E32.34725
G1 X54.487 Y31.906 E32.43613
G1 X53.092 Y31.629 E32.51989
G1 X52.635 Y31.582 F7800.000
G1 X52.002 Y30.608 F7800.000
G1 F1200
G1 X52.001 Y34.690 E32.72782
G1 F1200
G1 X52.001 Y38.773 E32.86948
G1 F1200
G1 X52.001 Y42.855 E32.94484
G1 F1200
G1 X52.001 Y44.896 E32.94939
G1 E30.94939 F2400.00000
G92 E0
G1 X47.999 Y44.896 F7800.000
G1 E2.00000 F2400.00000
G1 F1200
G1 X47.999 Y42.855 E2.00454
G1 F1200
G1 X47.999 Y38.773 E2.07991
G1 F1200
G1 X47.999 Y34.690 E2.22156
G1 F1200
G1 X47.998 Y30.608 E2.42950
G1 X44.102 Y31.085 F7800.000
G1 F1200
G1 X44.363 Y31.345 E2.45029
G1 X44.738 Y31.240 E2.47231
G1 X44.102 Y30.605 E2.52309
G1 X44.102 Y30.124 E2.55026
G1 X45.113 Y31.134 E2.63102
G1 X45.493 Y31.034 E2.65326
G1 X44.102 Y29.643 E2.76445
G1 X44.102 Y29.162 E2.79162
G1 X45.894 Y30.954 E2.93486
G1 X46.295 Y30.874 E2.95798
G1 X44.102 Y28.682 E3.13327
G1 X44.102 Y28.201 E3.16045
G1 X46.696 Y30.794 E3.36781
G1 X47.097 Y30.715 E3.39092
G1 X44.580 Y28.198 E3.59214
G1 X45.061 Y28.198 E3.61932
G1 X47.498 Y30.635 E3.81416
G1 X47.598 Y30.615 E3.81993
G1 X47.598 Y30.404 E3.83188
G1 X47.748 Y30.404 E3.84033
G1 X45.542 Y28.198 E4.01668
G1 X46.022 Y28.198 E4.04386
G1 X48.228 Y30.404 E4.22021
G1 X48.659 Y30.404 E4.24453
G1 X48.659 Y30.550 E4.25279
G1 X48.848 Y30.542 E4.26350
G1 X46.503 Y28.198 E4.45093
G1 X46.984 Y28.198 E4.47811
G1 X49.310 Y30.524 E4.66409
G1 X49.773 Y30.506 E4.69026
G1 X47.465 Y28.198 E4.87479
G1 X47.945 Y28.198 E4.90197
G1 X50.244 Y30.496 E5.08574
G1 X50.744 Y30.516 E5.11405
G1 X48.426 Y28.198 E5.29939
G1 X48.907 Y28.198 E5.32656
G1 X51.245 Y30.536 E5.51348
G1 X51.601 Y30.550 E5.53364
G1 X51.601 Y30.411 E5.54146
G1 X49.388 Y28.198 E5.71844
G1 X49.868 Y28.198 E5.74562
G1 X52.074 Y30.404 E5.92197
G1 X52.555 Y30.404 E5.94915
G1 X50.349 Y28.198 E6.12550
G1 X50.830 Y28.198 E6.15268
G1 X53.393 Y30.760 E6.35755
G1 X53.993 Y30.880 E6.39215
G1 X51.311 Y28.198 E6.60656
G1 X51.791 Y28.198 E6.63374
G1 X54.593 Y30.999 E6.85770
G1 X55.232 Y31.158 E6.89494
G1 X52.272 Y28.198 E7.13159
G1 X52.753 Y28.198 E7.15876
G1 X55.898 Y31.342 E7.41017
G1 X55.898 Y30.862 E7.43734
G1 X53.234 Y28.198 E7.65031
G1 X53.714 Y28.198 E7.67749
G1 X55.898 Y30.381 E7.85202
G1 X55.898 Y29.900 E7.87920
G1 X54.195 Y28.198 E8.01529
G1 X54.676 Y28.198 E8.04247
G1 X55.898 Y29.419 E8.14013
G1 X55.898 Y28.939 E8.16731
G1 X55.157 Y28.198 E8.22654
G1 X55.637 Y28.198 E8.25372
G1 X55.898 Y28.458 E8.27451
G1 X52.792 Y30.641 F7800.000
G1 F1200
G1 X52.402 Y30.250 E8.30573
G1 X52.402 Y30.144 E8.31176
G1 X52.295 Y30.144 E8.31780
G1 X52.001 Y52.716 F7800.000
G1 F1200
G1 X52.001 Y56.604 E8.59971
G1 F1200
G1 X52.001 Y60.492 E8.82164
G1 F1200
G1 X52.001 Y64.380 E8.98359
G1 F1200
G1 X52.000 Y68.269 E9.08555
G1 F1200
G1 X52.000 Y70.213 E9.10654
G1 X52.331 Y71.014 F7800.000
G1 F1200
G1 X52.591 Y71.274 E9.12724
G1 X52.804 Y71.008 E9.14640
G1 X52.329 Y70.533 E9.18420
G1 X52.757 Y70.483 E9.20846
G1 X53.017 Y70.743 E9.22915
G1 E7.22915 F2400.00000
G92 E0
G1 X48.000 Y70.213 F7800.000
G1 E2.00000 F2400.00000
G1 F1200
G1 X48.000 Y68.269 E2.02099
G1 F1200
G1 X47.999 Y64.380 E2.12296
G1 F1200
G1 X47.999 Y60.492 E2.28490
G1 F1200
G1 X47.999 Y56.604 E2.50684
G1 F1200
G1 X47.999 Y52.716 E2.78875
G1 X47.674 Y70.794 F7800.000
G1 F1200
G1 X47.414 Y70.534 E2.80976
G1 X46.983 Y70.483 E2.83460
G1 X47.408 Y71.013 E2.87345
G1 X47.668 Y71.273 E2.89445
M106 S209.1
G1 Z2.750 F7800.000
G1 X47.882 Y70.367 F7800.000
G1 F900
G1 X47.861 Y72.080 E2.98966
G1 X46.299 Y70.132 E3.12843
G1 X46.887 Y70.249 E3.16175
G1 X47.823 Y70.360 E3.21411
G1 E1.21411 F2400.00000
G92 E0
G1 X52.118 Y70.367 F7800.000
G1 E2.00000 F2400.00000
G1 F900
G1 X53.113 Y70.249 E2.05569
G1 X53.701 Y70.132 E2.08901
G1 X52.139 Y72.080 E2.22778
G1 X52.118 Y70.427 E2.31966
G1 E0.31966 F2400.00000
G92 E0
G1 X52.365 Y30.793 F7800.000
G1 E2.00000 F2400.00000
G1 F3600
G1 X52.100 Y52.549 E3.20909
G1 X51.902 Y52.549 E3.22010
G1 X51.638 Y30.761 E4.43095
G1 X50.000 Y30.696 E4.52204
G1 X48.362 Y30.761 E4.61314
G1 X48.098 Y52.549 E5.82399
G1 X47.900 Y52.549 E5.83500
G1 X47.635 Y30.793 E7.04409
G1 X45.355 Y31.246 E7.17330
G1 X43.898 Y31.657 E7.25738
G1 X43.898 Y27.994 E7.46095
G1 X56.102 Y27.994 E8.13910
G1 X56.102 Y31.657 E8.34267
G1 X54.645 Y31.246 E8.42676
G1 X52.424 Y30.804 E8.55263
G1 X52.694 Y31.199 F7800.000
G1 F3600
G1 X52.221 Y70.018 E10.71004
G1 X53.061 Y69.919 E10.75700
G1 X54.536 Y69.626 E10.84059
G1 X52.366 Y72.331 E11.03332
G1 X51.807 Y72.331 E11.06435
G1 X51.308 Y31.082 E13.35677
G1 X50.000 Y31.031 E13.42949
G1 X48.692 Y31.082 E13.50221
G1 X48.193 Y72.331 E15.79462
G1 X47.634 Y72.331 E15.82566
G1 X45.464 Y69.626 E16.01839
G1 X46.939 Y69.919 E16.10198
G1 X47.779 Y70.018 E16.14894
G1 X47.306 Y31.199 E18.30635
G1 X45.433 Y31.571 E18.41248
G1 X43.954 Y31.988 E18.49785
G1 X43.564 Y32.132 E18.52095
G1 X43.564 Y27.659 E18.76950
G1 X56.436 Y27.659 E19.48479
G1 X56.436 Y32.132 E19.73334
G1 X56.046 Y31.988 E19.75645
G1 X54.567 Y31.571 E19.84181
G1 X52.753 Y31.210 E19.94461
G1 X53.033 Y31.617 F7800.000
G1 F3396.7
G1 X52.570 Y69.631 E22.18365
G1 X53.007 Y69.579 E22.20954
G1 X54.487 Y69.284 E22.29842
G1 X54.799 Y69.196 E22.31750
G1 X55.096 Y69.477 E22.34158
G1 X52.531 Y72.675 E22.58308
G1 X51.467 Y72.675 E22.64572
G1 X50.967 Y31.413 E25.07611
G1 X50.000 Y31.375 E25.13314
G1 X49.033 Y31.413 E25.19016
G1 X48.533 Y72.675 E27.62055
G1 X47.469 Y72.675 E27.68319
G1 X44.904 Y69.477 E27.92469
G1 X45.201 Y69.196 E27.94877
G1 X45.513 Y69.284 E27.96785
G1 X46.993 Y69.579 E28.05673
G1 X47.430 Y69.631 E28.08262
G1 X46.967 Y31.617 E30.32166
G1 X45.513 Y31.906 E30.40895
G1 X44.061 Y32.316 E30.49784
G1 X43.220 Y32.626 E30.55061
G1 X43.220 Y27.315 E30.86339
G1 X56.780 Y27.315 E31.66203
G1 X56.780 Y32.626 E31.97481
G1 X55.939 Y32.316 E32.02759
G1 X54.487 Y31.906 E32.11647
G1 X53.092 Y31.629 E32.20023
G1 X52.635 Y31.582 F7800.000
G1 X52.002 Y30.608 F7800.000
G1 F1200
G1 X52.001 Y34.690 E32.40817
G1 F1200
G1 X52.001 Y38.773 E32.54982
G1 F1200
G1 X52.001 Y42.855 E32.62519
G1 F1200
G1 X52.001 Y44.896 E32.62973
G1 E30.62973 F2400.00000
G92 E0
G1 X47.999 Y44.896 F7800.000
G1 E2.00000 F2400.00000
G1 F1200
G1 X47.999 Y42.855 E2.00454
G1 F1200
G1 X47.999 Y38.773 E2.07991
G1 F1200
G1 X47.999 Y34.690 E2.22156
G1 F1200
G1 X47.998 Y30.608 E2.42950
G1 E0.42950 F2400.00000
G92 E0
G1 X44.363 Y28.198 F7800.000
G1 E2.00000 F2400.00000
G1 F900
G1 X44.102 Y28.458 E2.02079
G1 X44.102 Y28.939 E2.04797
G1 X44.843 Y28.198 E2.10720
G1 X45.324 Y28.198 E2.13438
G1 X44.102 Y29.419 E2.23204
G1 X44.102 Y29.900 E2.25922
G1 X45.805 Y28.198 E2.39532
G1 X46.286 Y28.198 E2.42250
G1 X44.102 Y30.381 E2.59703
G1 X44.102 Y30.862 E2.62421
G1 X46.766 Y28.198 E2.83718
G1 X47.247 Y28.198 E2.86436
G1 X44.102 Y31.345 E3.11588
G1 X44.768 Y31.158 E3.15496
G1 X47.728 Y28.198 E3.39161
G1 X48.209 Y28.198 E3.41878
G1 X45.407 Y30.999 E3.64274
G1 X46.007 Y30.880 E3.67733
G1 X48.689 Y28.198 E3.89175
G1 X49.170 Y28.198 E3.91893
G1 X46.608 Y30.760 E4.12380
G1 X47.208 Y30.641 E4.15839
G1 X47.338 Y30.510 E4.16883
G1 X47.338 Y30.404 E4.17486
G1 X47.445 Y30.404 E4.18090
G1 X49.651 Y28.198 E4.35725
G1 X50.132 Y28.198 E4.38443
G1 X47.926 Y30.404 E4.56078
G1 X48.399 Y30.411 E4.58752
G1 X50.612 Y28.198 E4.76450
G1 X51.093 Y28.198 E4.79168
G1 X48.755 Y30.536 E4.97859
G1 X49.256 Y30.516 E5.00691
G1 X51.574 Y28.198 E5.19224
G1 X52.055 Y28.198 E5.21942
G1 X49.756 Y30.496 E5.40319
G1 X50.227 Y30.506 E5.42983
G1 X52.535 Y28.198 E5.61436
G1 X53.016 Y28.198 E5.64154
G1 X50.690 Y30.524 E5.82752
G1 X51.152 Y30.542 E5.85369
G1 X53.497 Y28.198 E6.04113
G1 X53.978 Y28.198 E6.06831
G1 X51.772 Y30.404 E6.24466
G1 X52.252 Y30.404 E6.27184
G1 X54.458 Y28.198 E6.44819
G1 X54.939 Y28.198 E6.47537
G1 X52.502 Y30.635 E6.67021
G1 X52.903 Y30.715 E6.69332
G1 X55.420 Y28.198 E6.89454
G1 X55.898 Y28.198 E6.92155
G1 X53.304 Y30.794 E7.12903
G1 X53.705 Y30.874 E7.15214
G1 X55.898 Y28.682 E7.32744
G1 X55.898 Y29.162 E7.35461
G1 X54.106 Y30.954 E7.49785
G1 X54.507 Y31.034 E7.52096
G1 X55.898 Y29.643 E7.63214
G1 X55.898 Y30.124 E7.65932
G1 X54.887 Y31.134 E7.74007
G1 X55.262 Y31.240 E7.76210
G1 X55.898 Y30.605 E7.81287
G1 X55.898 Y31.085 E7.84004
G1 X55.637 Y31.345 E7.86083
G1 E5.86083 F2400.00000
G92 E0
G1 X52.001 Y52.716 F7800.000
G1 E2.00000 F2400.00000
G1 F1200
G1 X52.001 Y56.604 E2.28191
G1 F1200
G1 X52.001 Y60.492 E2.50384
G1 F1200
G1 X52.001 Y64.380 E2.66579
G1 F1200
G1 X52.000 Y68.269 E2.76776
G1 F1200
G1 X52.000 Y70.213 E2.78875
G1 X52.326 Y70.794 F7800.000
G1 F900
G1 X52.586 Y70.534 E2.80974
G1 X53.017 Y70.483 E2.83458
G1 X52.592 Y71.013 E2.87344
G1 X52.331 Y71.274 E2.89448
G1 E0.89448 F2400.00000
G92 E0
G1 X48.000 Y70.213 F7800.000
G1 E2.00000 F2400.00000
G1 F1200
G1 X48.000 Y68.269 E2.02099
G1 F1200
G1 X47.999 Y64.380 E2.12296
G1 F1200
G1 X47.999 Y60.492 E2.28490
G1 F1200
G1 X47.999 Y56.604 E2.50684
G1 F1200
G1 X47.999 Y52.716 E2.78875
G1 E0.78875 F2400.00000
G92 E0
G1 X46.983 Y70.742 F7800.000
G1 E2.00000 F2400.00000
G1 F900
G1 X47.243 Y70.483 E2.02069
G1 X47.671 Y70.533 E2.04494
G1 X47.196 Y71.008 E2.08275
G1 X47.409 Y71.274 F7800.000
G1 F900
G1 X47.669 Y71.014 E2.10343
G1 E0.10343 F2400.00000
G92 E0
M107
; Filament-specific end gcode 
;END gcode for filament

M104 S0 ; turn off temperature
G28 X0  ; home X axis
M84     ; disable motors

; filament used = 284.8mm (0.7cm3)
; total filament cost = 0.0

; avoid_crossing_perimeters = 0
; bed_shape = 0x0,100x0,100x100,0x100
; bed_temperature = 0
; before_layer_gcode = 
; between_objects_gcode = 
; bridge_acceleration = 0
; bridge_fan_speed = 100
; brim_connections_width = 0
; brim_width = 0
; complete_objects = 0
; cooling = 1
; default_acceleration = 0
; disable_fan_first_layers = 3
; duplicate_distance = 6
; end_filament_gcode = "; Filament-specific end gcode \n;END gcode for filament\n"
; end_gcode = M104 S0 ; turn off temperature\nG28 X0  ; home X axis\nM84     ; disable motors\n
; extruder_clearance_height = 20
; extruder_clearance_radius = 20
; extruder_offset = 0x0
; extrusion_axis = E
; extrusion_multiplier = 1
; fan_always_on = 0
; fan_below_layer_time = 60
; filament_colour = #FF0000
; filament_cost = 0
; filament_density = 0
; filament_diameter = 1.75
; filament_max_volumetric_speed = 0
; filament_notes = ""
; first_layer_acceleration = 0
; first_layer_bed_temperature = 0
; first_layer_extrusion_width = 200%
; first_layer_speed = 40
; first_layer_temperature = 200
; gcode_arcs = 0
; gcode_comments = 0
; gcode_flavor = reprap
; has_heatbed = 0
; infill_acceleration = 0
; infill_first = 0
; interior_brim_width = 0
; layer_gcode = 
; max_fan_speed = 100
; max_layer_height = 0.3
; max_print_speed = 60
; max_volumetric_speed = 0
; min_fan_speed = 35
; min_layer_height = 0.15
; min_print_speed = 10
; min_skirt_length = 0
; notes = 
; nozzle_diameter = 0.4
; only_retract_when_crossing_perimeters = 1
; ooze_prevention = 0
; output_filename_format = [input_filename_base].gcode
; perimeter_acceleration = 0
; post_process = 
; pressure_advance = 0
; printer_notes = 
; resolution = 0
; retract_before_travel = 2
; retract_layer_change = 0
; retract_length = 2
; retract_length_toolchange = 10
; retract_lift = 0
; retract_lift_above = 0
; retract_lift_below = 0
; retract_restart_extra = 0
; retract_restart_extra_toolchange = 0
; retract_speed = 40
; skirt_distance = 6
; skirt_height = 1
; skirts = 1
; slowdown_below_layer_time = 5
; spiral_vase = 0
; standby_temperature_delta = -5
; start_filament_gcode = "; Filament gcode\n"
; start_gcode = G28 ; home all axes\nG1 Z5 F5000 ; lift nozzle\n
; temperature = 200
; threads = 4
; toolchange_gcode = 
; travel_speed = 130
; use_firmware_retraction = 0
; use_relative_e_distances = 0
; use_set_and_wait_bed = 0
; use_set_and_wait_extruder = 0
; use_volumetric_e = 0
; vibration_limit = 0
; wipe = 0
; z_offset = 0
; z_steps_per_mm = 0
; adaptive_slicing = 0
; adaptive_slicing_quality = 75%
; dont_support_bridges = 1
; extrusion_width = 0
; first_layer_height = 0.35
; infill_only_where_needed = 0
; interface_shells = 0
; layer_height = 0.4
; match_horizontal_surfaces = 0
; raft_layers = 0
; regions_overlap = 0
; seam_position = aligned
; sequential_print_priority = 0
; support_material = 0
; support_material_angle = 0
; support_material_buildplate_only = 1
; support_material_contact_distance = 0.2
; support_material_enforce_layers = 0
; support_material_extruder = 1
; support_material_extrusion_width = 0
; support_material_interface_extruder = 1
; support_material_interface_extrusion_width = 0
; support_material_interface_layers = 1
; support_material_interface_spacing = 0
; support_material_interface_speed = 100%
; support_material_max_layers = 0
; support_material_pattern = rectilinear
; support_material_spacing = 5
; support_material_speed = 0
; support_material_threshold = 30%
; xy_size_compensation = 0
; bottom_infill_pattern = rectilinear
; bottom_solid_layers = 3
; bridge_flow_ratio = 1
; bridge_speed = 0
; external_perimeter_extrusion_width = 0
; external_perimeter_speed = 50%
; external_perimeters_first = 0
; extra_perimeters = 1
; fill_angle = 45
; fill_density = 5%
; fill_gaps = 1
; fill_pattern = rectilinear
; gap_fill_speed = 20
; infill_every_layers = 1
; infill_extruder = 1
; infill_extrusion_width = 0
; infill_overlap = 55%
; infill_speed = 0
; overhangs = 1
; perimeter_extruder = 1
; perimeter_extrusion_width = 0
; perimeter_speed = 0
; perimeters = 3
; small_perimeter_speed = 15
; solid_infill_below_area = 70
; solid_infill_every_layers = 0
; solid_infill_extruder = 1
; solid_infill_extrusion_width = 0
; solid_infill_speed = 20
; thin_walls = 1
; top_infill_extrusion_width = 0
; top_infill_pattern = rectilinear
; top_solid_infill_speed = 15
; top_solid_layers = 3
