<?xml version="1.0" encoding="UTF-8" standalone="no"?>
<svg
   xmlns:dc="http://purl.org/dc/elements/1.1/"
   xmlns:cc="http://creativecommons.org/ns#"
   xmlns:rdf="http://www.w3.org/1999/02/22-rdf-syntax-ns#"
   xmlns:svg="http://www.w3.org/2000/svg"
   xmlns="http://www.w3.org/2000/svg"
   xmlns:sodipodi="http://sodipodi.sourceforge.net/DTD/sodipodi-0.dtd"
   xmlns:inkscape="http://www.inkscape.org/namespaces/inkscape"
   width="210mm"
   height="297mm"
   viewBox="-80 -80 210 297"
   version="1.1"
   id="svg6"
   sodipodi:docname="Spool4EasyThreedX2_Plate_Single.svg"
   inkscape:version="0.92.5 (2060ec1f9f, 2020-04-08)">
  <metadata
     id="metadata12">
    <rdf:RDF>
      <cc:Work
         rdf:about="">
        <dc:format>image/svg+xml</dc:format>
        <dc:type
           rdf:resource="http://purl.org/dc/dcmitype/StillImage" />
        <dc:title>OpenSCAD Model</dc:title>
      </cc:Work>
    </rdf:RDF>
  </metadata>
  <defs
     id="defs10" />
  <sodipodi:namedview
     pagecolor="#ffffff"
     bordercolor="#666666"
     borderopacity="1"
     objecttolerance="10"
     gridtolerance="10"
     guidetolerance="10"
     inkscape:pageopacity="0"
     inkscape:pageshadow="2"
     inkscape:window-width="1920"
     inkscape:window-height="1048"
     id="namedview8"
     showgrid="false"
     inkscape:zoom="1.1038232"
     inkscape:cx="383.22218"
     inkscape:cy="529.472"
     inkscape:window-x="1366"
     inkscape:window-y="0"
     inkscape:window-maximized="1"
     inkscape:current-layer="svg6"
     showguides="true"
     inkscape:guide-bbox="true" />
  <title
     id="title2">OpenSCAD Model</title>
  <ellipse
     style="opacity:0.98999999;fill:#cccccc;fill-opacity:1;stroke:#999999;stroke-width:0.35479236;stroke-miterlimit:4;stroke-dasharray:none;stroke-opacity:1"
     id="path2819"
     cx="24.987381"
     cy="66.949539"
     rx="68.526009"
     ry="69.245102" />
  <path
     id="path2808"
     d="M 110,68.5 67.5,-5.1122001 h -85.000001 l -42.5,73.6122001 42.5,73.6122 H 67.5 Z M 48.0318,45.4054 46.5853,45.2725 45.1536,45.0265 43.7457,44.6689 42.3702,44.202 41.0355,43.6286 39.75,42.9523 38.5215,42.1771 37.3576,41.308 36.2654,40.3502 35.2518,39.3097 34.32295,38.1929 33.48459,37.0066 32.74188,35.7582 32.0994,34.4554 l -0.53827,-1.3492 -0.43076,-1.3873 -0.32059,-1.4168 -0.20845,-1.4375 -0.095,-1.4495 0.01901,-1.4525 0.13292,-1.4465 0.24601,-1.4317 0.35756,-1.4079 0.46693,-1.3755 0.57341,-1.3347 0.67635,-1.2855 0.77514,-1.2285 0.86913,-1.1639 0.95781,-1.0922 1.0405,-1.0136 1.1168,-0.9288 1.1863,-0.8384 1.2484,-0.7427 1.3028,-0.6425 1.3492,-0.5383001 1.3872,-0.4307 1.4168,-0.3206 1.4376,-0.2085 1.4495,-0.095 1.4525,0.019 1.4465,0.133 1.4317,0.246 1.4079,0.3575 1.3755,0.4669 1.3346,0.5735001 1.2856,0.6763 1.2285,0.7751 1.1639,0.8692 1.0922,0.9578 1.0136,1.0405 0.9288,1.1168 0.8384,1.1863 0.7427,1.2483 0.6425,1.3029 0.5383,1.3492 0.4307,1.3872 0.3206,1.4168 0.2085,1.4376 0.095,1.4495 -0.0191,1.4525 -0.1329,1.4465 -0.246,1.4316 -0.3575,1.408 -0.467,1.3755 -0.5734,1.3346 -0.6763,1.2856 -0.7752,1.2285 -0.8691,1.1639 -0.9578,1.0921 -1.0405,1.0137 -1.1168,0.9288 -1.1863,0.8384 -1.2484,0.7427 -1.3028,0.6425 -1.3492,0.5383 -1.3873,0.4307 -1.4167,0.3206 -1.4376,0.2084 -1.4495,0.0951 z m 1.0727,-17.4801 0.0777,-0.0113 0.0766,-0.0173 0.075,-0.0233 0.0729,-0.0291 0.0705,-0.0347 0.0674,-0.0401 0.0641,-0.0454 0.0604,-0.0502 0.0563,-0.0548 0.0517,-0.059 0.047,-0.0629 0.0419,-0.0664 0.0366,-0.0695 0.031,-0.0721 0.0252,-0.0744 0.0193,-0.0761 0.0133,-0.0774 0.0072,-0.0782 10e-4,-0.0785 L 49.9945,26.8263 49.9832,26.7486 49.9659,26.672 49.9426,26.597 49.9135,26.524 49.8788,26.4536 49.8387,26.3862 49.7934,26.322 49.7431,26.2617 49.6884,26.2054 49.6293,26.1536 49.5664,26.1067 49.5,26.0648 49.4305,26.0282 49.3584,25.9972 49.284,25.972 l -0.0761,-0.0194 -0.0774,-0.0133 -0.0782,-0.0071 -0.0785,-0.0011 -0.0783,0.0052 -0.0777,0.0112 -0.0766,0.0174 -0.075,0.0232 -0.0729,0.0291 -0.0705,0.0348 -0.0674,0.0401 -0.0642,0.0453 -0.0603,0.0502 -0.0563,0.0548 -0.0517,0.0591 -0.047,0.0629 -0.0419,0.0664 -0.0366,0.0695 -0.031,0.0721 -0.0252,0.0744 -0.0193,0.0761 -0.0134,0.0774 -0.0071,0.0781 -0.0011,0.0786 0.0052,0.0783 0.0112,0.0777 0.0174,0.0766 0.0233,0.075 0.029,0.0729 0.0348,0.0704 0.0401,0.0675 0.0453,0.0642 0.0503,0.0603 0.0547,0.0563 0.0591,0.0517 0.0629,0.047 0.0664,0.0419 0.0695,0.0366 0.0721,0.031 0.0744,0.0252 0.0761,0.0193 0.0774,0.0133 0.0782,0.0072 0.0785,0.0011 z M -0.93380058,45.3294 -2.3714006,45.121 l -1.4167,-0.3206 -1.3873,-0.4307 -1.3492,-0.5383 -1.3028,-0.6425 -1.2484,-0.7427 -1.1863004,-0.8384 -1.1168,-0.9288 -1.0405,-1.0137 -0.9578,-1.0921 -0.8691,-1.1639 -0.7752,-1.2285 -0.6763,-1.2856 -0.5734,-1.3346 -0.467,-1.3755 -0.3575,-1.408 -0.246,-1.4316 -0.1329,-1.4465 -0.0191,-1.4525 0.095,-1.4495 0.2085,-1.4376 0.3206,-1.4168 0.4307,-1.3872 0.5383,-1.3492 0.6425,-1.3029 0.7427,-1.2483 0.8384,-1.1863 0.9288,-1.1168 1.0136,-1.0405 1.0922,-0.9578 1.1639004,-0.8692 1.2285,-0.7751 1.2856,-0.6763 1.3346,-0.5735001 1.3755,-0.4669 1.4079,-0.3575 1.4317,-0.246 1.44650002,-0.133 1.45249998,-0.019 1.4495,0.095 1.4376,0.2085 1.4168,0.3206 1.3872,0.4307 1.3492,0.5383001 1.3028,0.6425 1.2484006,0.7427 1.1863,0.8384 1.1168,0.9288 1.0405,1.0136 0.95781,1.0922 0.86913,1.1639 0.77514,1.2285 0.67635,1.2855 0.57341,1.3347 0.46693,1.3755 0.35756,1.4079 0.24601,1.4317 0.13292,1.4465 0.01901,1.4525 -0.095,1.4495 -0.20845,1.4375 -0.32059,1.4168 -0.43076,1.3873 -0.53827,1.3492 -0.64248,1.3028 -0.74271,1.2484 -0.83836,1.1863 -0.92885,1.1168 -1.0136,1.0405 -1.0922,0.9578 -1.1639,0.8691 -1.228501,0.7752 -1.2854996,0.6763 -1.3347,0.5734 -1.3755,0.4669 -1.4079,0.3576 -1.4317,0.246 -1.4465,0.1329 -1.45249998,0.0191 z m 1.98609998,-17.4 0.0782,-0.0072 0.0774,-0.0133 0.0761,-0.0193 0.0744,-0.0252 0.0721,-0.031 0.0695,-0.0366 0.0664,-0.0419 0.0629,-0.047 0.0591,-0.0517 0.0547,-0.0563 0.0503,-0.0603 0.0453,-0.0642 0.0401,-0.0675 0.0348,-0.0704 0.029,-0.0729 0.0233,-0.075 0.0174,-0.0766 0.0112,-0.0777 0.005,-0.0783 -10e-4,-0.0786 -0.007,-0.0781 -0.0134,-0.0774 -0.0193,-0.0761 -0.0252,-0.0744 -0.031,-0.0721 -0.0366,-0.0695 -0.0419,-0.0664 -0.047,-0.0629 -0.0517,-0.0591 -0.0563,-0.0548 -0.0603,-0.0502 -0.0642,-0.0453 -0.0674,-0.0401 -0.0705,-0.0348 -0.0729,-0.0291 -0.075,-0.0232 -0.0766,-0.0174 -0.0777,-0.0112 -0.0783,-0.0052 -0.0785,0.0011 -0.0782,0.0071 -0.0774,0.0133 -0.0761,0.0194 -0.0744,0.0252 -0.0721,0.031 -0.0695,0.0366 -0.0664,0.0419 -0.0629,0.0469 -0.0591,0.0518 -0.0547,0.0563 -0.0503,0.0603 -0.0453,0.0642 -0.0401,0.0674 -0.0347,0.0704 -0.0291,0.073 -0.0233,0.075 -0.0173,0.0766 -0.0113,0.0777 -0.005,0.0783 0.001,0.0785 0.007,0.0782 0.0133,0.0774 0.0193,0.0761 0.0252,0.0744 0.031,0.0721 0.0366,0.0695 0.0419,0.0664 0.047,0.0629 0.0517,0.059 0.0563,0.0548 0.0604,0.0502 0.0641,0.0454 0.0674,0.0401 0.0705,0.0347 0.0729,0.0291 0.075,0.0233 0.0766,0.0173 0.0777,0.0113 0.0783,0.0052 z M 55.9082,61.42036 l 0.6082,-1.31918 0.7098,-1.26739 0.807,-1.20779 0.8993,-1.1408 0.986,-1.0667 1.0667,-0.986 1.1408,-0.8993 1.2078,-0.807 1.2674,-0.7098 1.3191,-0.6082 1.3629,-0.5027 1.3981,-0.3943 L 70.106,50.2278 71.5485,50.057 73,50 l 1.4515,0.057 1.4425,0.1708 1.4247,0.2834 1.3981,0.3943 1.3628,0.5027 1.319201,0.6082 1.2674,0.7098 1.2078,0.807 1.1408,0.8993 1.0667,0.986 0.986,1.0667 0.8993,1.1408 0.807,1.20779 0.7098,1.26739 0.6082,1.31918 0.5027,1.36283 0.3943,1.39808 0.2834,1.4247 0.1708,1.44254 0.057,1.45149 -0.057,1.45149 -0.1708,1.44254 -0.2834,1.4247 -0.3943,1.39808 -0.5027,1.36283 -0.6082,1.31918 -0.7098,1.267391 -0.807,1.20779 -0.8993,1.1408 -0.986,1.0667 -1.0667,0.986 -1.1408,0.8993 -1.2078,0.807 -1.2674,0.7098 -1.319201,0.6082 -1.3628,0.5027 -1.3981,0.3943 -1.4247,0.2834 -1.4425,0.1708 -1.4515,0.057 -1.4515,-0.057 -1.4425,-0.1708 -1.4247,-0.2834 -1.3981,-0.3943 -1.3629,-0.5027 -1.3191,-0.6082 -1.2674,-0.7098 -1.2078,-0.807 -1.1408,-0.8993 -1.0667,-0.986 -0.986,-1.0667 -0.8993,-1.1408 -0.807,-1.20779 L 56.5164,76.89882 55.9082,75.57964 55.4054,74.21681 55.0112,72.81873 54.7278,71.39403 54.557,69.95149 54.5,68.5 l 0.057,-1.45149 0.1708,-1.44254 0.2834,-1.4247 0.3942,-1.39808 z m 17.1703,8.076542 0.0779,-0.0092 0.077,-0.01532 0.0756,-0.02132 0.0737,-0.02718 0.0713,-0.03287 0.0685,-0.03838 0.0653,-0.04362 0.0616,-0.04862 0.0577,-0.0533 0.0533,-0.05765 0.0486,-0.06166 0.0436,-0.06529 0.0384,-0.06851 0.0329,-0.0713 0.0271,-0.07367 0.0214,-0.07556 0.0153,-0.07701 0.0092,-0.07799 0.0031,-0.07845 -0.0031,-0.07845 -0.0092,-0.07799 -0.0153,-0.07701 -0.0214,-0.07556 -0.0271,-0.07367 -0.0329,-0.0713 -0.0384,-0.06851 -0.0436,-0.06529 -0.0486,-0.06166 -0.0533,-0.05765 -0.0577,-0.0533 -0.0616,-0.04861 -0.0653,-0.04363 -0.0685,-0.03837 -0.0713,-0.03287 -0.0737,-0.02718 -0.0756,-0.02132 -0.077,-0.01532 -0.0779,-0.0092 -0.0785,-0.0031 -0.0785,0.0031 -0.0779,0.0092 -0.077,0.01532 -0.0756,0.02132 -0.0737,0.02718 -0.0713,0.03287 -0.0685,0.03837 -0.0653,0.04363 -0.0617,0.04861 -0.0576,0.0533 -0.0533,0.05765 -0.0486,0.06166 -0.0436,0.06529 -0.0384,0.06851 -0.0329,0.0713 -0.0272,0.07367 -0.0213,0.07556 -0.0153,0.07701 -0.0092,0.07799 -0.0031,0.07845 0.0031,0.07845 0.0092,0.07799 0.0153,0.07701 0.0213,0.07556 0.0272,0.07367 0.0329,0.0713 0.0384,0.06851 0.0436,0.06529 0.0486,0.06166 0.0533,0.05765 0.0576,0.0533 0.0617,0.04862 0.0653,0.04362 0.0685,0.03838 0.0713,0.03287 0.0737,0.02718 0.0756,0.02132 0.077,0.01532 0.0779,0.0092 0.0785,0.0031 z m -97.530001,17.446099 -1.4425,-0.1708 -1.4247,-0.2834 -1.3981,-0.3943 -1.3628,-0.5027 -1.3192,-0.6082 -1.2674,-0.7098 -1.2078,-0.807 -1.1408,-0.8993 -1.0667,-0.986 -0.986,-1.0667 -0.8993,-1.1408 -0.807,-1.20779 -0.7098,-1.267391 -0.6082,-1.31918 -0.5027,-1.36283 -0.3943,-1.39808 -0.2834,-1.4247 -0.1708,-1.44254 -0.057,-1.45149 0.057,-1.45149 0.1708,-1.44254 0.2834,-1.4247 0.3943,-1.39808 0.5027,-1.36283 0.6082,-1.31918 0.7098,-1.26739 0.807,-1.20779 0.8993,-1.1408 0.986,-1.0667 1.0667,-0.986 1.1408,-0.8993 1.2078,-0.807 1.2674,-0.7098 1.3192,-0.6082 1.3628,-0.5027 1.3981,-0.3943 1.4247,-0.2834 1.4425,-0.1708 1.4515,-0.057 1.4515,0.057 1.4425,0.1708 1.4247,0.2834 1.3981,0.3943 1.3629,0.5027 1.3191,0.6082 1.2674,0.7098 1.2078,0.807 1.1408,0.8993 1.0667004,0.986 0.986,1.0667 0.8993,1.1408 0.807,1.20779 0.7098,1.26739 0.6082,1.31918 0.5028,1.36283 0.3942,1.39808 0.2834,1.4247 0.1708,1.44254 0.057,1.45149 -0.057,1.45149 -0.1708,1.44254 -0.2834,1.4247 -0.3942,1.39808 -0.5028,1.36283 -0.6082,1.31918 -0.7098,1.267391 -0.807,1.20779 -0.8993,1.1408 -0.986,1.0667 -1.0667004,0.986 -1.1408,0.8993 -1.2078,0.807 -1.2674,0.7098 -1.3191,0.6082 -1.3629,0.5027 -1.3981,0.3943 -1.4247,0.2834 -1.4425,0.1708 -1.4515,0.057 z m 1.53,-17.446099 0.0779,-0.0092 0.077,-0.01532 0.0756,-0.02132 0.0737,-0.02718 0.0713,-0.03287 0.0685,-0.03838 0.0653,-0.04362 0.0617,-0.04862 0.0576,-0.0533 0.0533,-0.05765 0.0486,-0.06166 0.0436,-0.06529 0.0384,-0.06851 0.0329,-0.0713 0.0272,-0.07367 0.0213,-0.07556 0.0153,-0.07701 0.009,-0.07799 0.003,-0.07845 -0.003,-0.07845 -0.009,-0.07799 -0.0153,-0.07701 -0.0213,-0.07556 -0.0272,-0.07367 -0.0329,-0.0713 -0.0384,-0.06851 -0.0436,-0.06529 -0.0486,-0.06166 -0.0533,-0.05765 -0.0576,-0.0533 -0.0617,-0.04861 -0.0653,-0.04363 -0.0685,-0.03837 -0.0713,-0.03287 -0.0737,-0.02718 -0.0756,-0.02132 -0.077,-0.01532 -0.0779,-0.0092 -0.0785,-0.0031 -0.0785,0.0031 -0.0779,0.0092 -0.077,0.01532 -0.0756,0.02132 -0.0737,0.02718 -0.0713,0.03287 -0.0685,0.03837 -0.0653,0.04363 -0.0616,0.04861 -0.0577,0.0533 -0.0533,0.05765 -0.0486,0.06166 -0.0436,0.06529 -0.0384,0.06851 -0.0329,0.0713 -0.0271,0.07367 -0.0214,0.07556 -0.0153,0.07701 -0.009,0.07799 -0.003,0.07845 0.003,0.07845 0.009,0.07799 0.0153,0.07701 0.0214,0.07556 0.0271,0.07367 0.0329,0.0713 0.0384,0.06851 0.0436,0.06529 0.0486,0.06166 0.0533,0.05765 0.0577,0.0533 0.0616,0.04862 0.0653,0.04362 0.0685,0.03838 0.0713,0.03287 0.0737,0.02718 0.0756,0.02132 0.077,0.01532 0.0779,0.0092 0.0785,0.0031 z m 22.95330042,59.046998 -1.44650002,-0.133 -1.4317,-0.246 -1.4079,-0.3575 -1.3755,-0.4669 -1.3346,-0.5735 -1.2856,-0.6763 -1.2285,-0.7751 -1.1639004,-0.8692 -1.0922,-0.9578 -1.0136,-1.0405 -0.9288,-1.1168 -0.8384,-1.1863 -0.7427,-1.2483 -0.6425,-1.3029 -0.5383,-1.3492 -0.4307,-1.3872 -0.3206,-1.4168 -0.2085,-1.4376 -0.095,-1.4495 0.0191,-1.4525 0.1329,-1.4465 0.246,-1.4316 0.3575,-1.408 0.467,-1.3755 0.5734,-1.3346 0.6763,-1.2856 0.7752,-1.228499 0.8691,-1.1639 0.9578,-1.0921 1.0405,-1.0137 1.1168,-0.9288 1.1863004,-0.8384 1.2484,-0.7427 1.3028,-0.6425 1.3492,-0.5383 1.3873,-0.4307 1.4167,-0.3206 1.43760002,-0.2084 1.4495,-0.0951 1.45249998,0.0191 1.4465,0.1329 1.4317,0.246 1.4079,0.3576 1.3755,0.4669 1.3347,0.5734 1.2854996,0.6763 1.228501,0.7752 1.1639,0.8691 1.0922,0.9578 1.0136,1.0405 0.92885,1.1168 0.83836,1.1863 0.74271,1.248399 0.64248,1.3028 0.53827,1.3492 0.43076,1.3873 0.32059,1.4168 0.20845,1.4375 0.095,1.4495 -0.01901,1.4525 -0.13292,1.4465 -0.24601,1.4317 -0.35756,1.4079 -0.46693,1.3755 -0.57341,1.3347 -0.67635,1.2855 -0.77514,1.2285 -0.86913,1.1639 -0.95781,1.0922 -1.0405,1.0136 -1.1168,0.9288 -1.1863,0.8384 -1.2484006,0.7427 -1.3028,0.6425 -1.3492,0.5383 -1.3872,0.4307 -1.4168,0.3206 -1.4376,0.2085 -1.4495,0.095 z m 1.07269998,-17.4802 0.0777,-0.0112 0.0766,-0.0174 0.075,-0.0232 0.0729,-0.0291 0.0705,-0.0348 0.0674,-0.0401 0.0642,-0.0453 0.0603,-0.0502 0.0563,-0.0548 0.0517,-0.0591 0.047,-0.0629 0.0419,-0.0664 0.0366,-0.0695 0.031,-0.0721 0.0252,-0.0744 0.0193,-0.0761 0.0134,-0.0774 0.007,-0.0781 10e-4,-0.0786 -0.005,-0.0783 -0.0112,-0.0777 -0.0174,-0.0766 -0.0233,-0.075 -0.029,-0.0729 -0.0348,-0.0704 -0.0401,-0.0675 -0.0453,-0.0642 -0.0503,-0.0603 -0.0547,-0.0563 -0.0591,-0.0517 -0.0629,-0.047 -0.0664,-0.0419 -0.0695,-0.0366 -0.0721,-0.031 -0.0744,-0.0252 -0.0761,-0.0193 -0.0774,-0.0133 -0.0782,-0.007 -0.0785,-0.001 -0.0783,0.005 -0.0777,0.0113 -0.0766,0.0173 -0.075,0.0233 -0.0729,0.0291 -0.0705,0.0347 -0.0674,0.0401 -0.0641,0.0454 -0.0604,0.0502 -0.0563,0.0548 -0.0517,0.059 -0.047,0.0629 -0.0419,0.0664 -0.0366,0.0695 -0.031,0.0721 -0.0252,0.0744 -0.0193,0.0761 -0.0133,0.0774 -0.007,0.0782 -0.001,0.0785 0.005,0.0783 0.0113,0.0777 0.0173,0.0766 0.0233,0.075 0.0291,0.073 0.0347,0.0704 0.0401,0.0674 0.0453,0.0642 0.0503,0.0603 0.0547,0.0563 0.0591,0.0518 0.0629,0.0469 0.0664,0.0419 0.0695,0.0366 0.0721,0.031 0.0744,0.0252 0.0761,0.0194 0.0774,0.0133 0.0782,0.007 0.0785,0.001 z m 45.9617006,17.4042 -1.4376,-0.2085 -1.4168,-0.3206 -1.3872,-0.4307 -1.3492,-0.5383 -1.3028,-0.6425 -1.2484,-0.7427 -1.1863,-0.8384 -1.1168,-0.9288 -1.0405,-1.0136 -0.95781,-1.0922 -0.86913,-1.1639 -0.77514,-1.2285 -0.67635,-1.2855 -0.57341,-1.3347 -0.46693,-1.3755 -0.35756,-1.4079 -0.24601,-1.4317 -0.13292,-1.4465 -0.01901,-1.4525 0.095,-1.4495 0.20845,-1.4375 0.32059,-1.4168 0.43076,-1.3873 0.53827,-1.3492 0.64248,-1.3028 0.74271,-1.248399 0.83836,-1.1863 0.92885,-1.1168 1.0136,-1.0405 1.0922,-0.9578 1.1639,-0.8691 1.2285,-0.7752 1.2855,-0.6763 1.3347,-0.5734 1.3755,-0.4669 1.4079,-0.3576 1.4317,-0.246 1.4465,-0.1329 1.4525,-0.0191 1.4495,0.0951 1.4376,0.2084 1.4167,0.3206 1.3873,0.4307 1.3492,0.5383 1.3028,0.6425 1.2484,0.7427 1.1863,0.8384 1.1168,0.9288 1.0405,1.0137 0.9578,1.0921 0.8691,1.1639 0.7752,1.228499 0.6763,1.2856 0.5734,1.3346 0.467,1.3755 0.3575,1.408 0.246,1.4316 0.1329,1.4465 0.0191,1.4525 -0.095,1.4495 -0.2085,1.4376 -0.3206,1.4168 -0.4307,1.3872 -0.5383,1.3492 -0.6425,1.3029 -0.7427,1.2483 -0.8384,1.1863 -0.9288,1.1168 -1.0136,1.0405 -1.0922,0.9578 -1.1639,0.8692 -1.2285,0.7751 -1.2856,0.6763 -1.3346,0.5735 -1.3755,0.4669 -1.4079,0.3575 -1.4317,0.246 -1.4465,0.133 -1.4525,0.019 z m 1.9861,-17.4001 0.0782,-0.007 0.0774,-0.0133 0.0761,-0.0194 0.0744,-0.0252 0.0721,-0.031 0.0695,-0.0366 0.0664,-0.0419 0.0629,-0.0469 0.0591,-0.0518 0.0547,-0.0563 0.0503,-0.0603 0.0453,-0.0642 0.0401,-0.0674 0.0347,-0.0704 0.0291,-0.073 0.0233,-0.075 0.0173,-0.0766 0.0113,-0.0777 0.0051,-0.0783 -10e-4,-0.0785 -0.0072,-0.0782 -0.0133,-0.0774 -0.0193,-0.0761 -0.0252,-0.0744 -0.031,-0.0721 -0.0366,-0.0695 -0.0419,-0.0664 -0.047,-0.0629 -0.0517,-0.059 -0.0563,-0.0548 -0.0604,-0.0502 -0.0641,-0.0454 -0.0674,-0.0401 -0.0705,-0.0347 -0.0729,-0.0291 -0.075,-0.0233 -0.0766,-0.0173 -0.0777,-0.0113 -0.0783,-0.005 -0.0785,0.001 -0.0782,0.007 -0.0774,0.0133 -0.0761,0.0193 -0.0744,0.0252 -0.0721,0.031 -0.0695,0.0366 -0.0664,0.0419 -0.0629,0.047 -0.0591,0.0517 -0.0547,0.0563 -0.0503,0.0603 -0.0453,0.0642 -0.0401,0.0675 -0.0348,0.0704 -0.029,0.0729 -0.0233,0.075 -0.0174,0.0766 -0.0112,0.0777 -0.0052,0.0783 0.0011,0.0786 0.0071,0.0781 0.0134,0.0774 0.0193,0.0761 0.0252,0.0744 0.031,0.0721 0.0366,0.0695 0.0419,0.0664 0.047,0.0629 0.0517,0.0591 0.0563,0.0548 0.0603,0.0502 0.0642,0.0453 0.0674,0.0401 0.0705,0.0348 0.0729,0.0291 0.075,0.0232 0.0766,0.0174 0.0777,0.0112 0.0783,0.005 z M 43.443,67.04851 43.5,68.5 l -0.057,1.45149 -0.1708,1.44254 -0.2834,1.4247 -0.3943,1.39808 -0.5027,1.36283 -0.6082,1.31918 -0.7098,1.267391 -0.807,1.20779 -0.8993,1.1408 -0.986,1.0667 -1.0667,0.986 -1.1408,0.8993 -1.20779,0.807 -1.26739,0.7098 -1.31918,0.6082 -1.36283,0.5027 -1.39808,0.3943 -1.4247,0.2834 -1.44254,0.1708 -1.45149,0.057 -1.45149,-0.057 -1.44254,-0.1708 -1.4247,-0.2834 -1.39808,-0.3943 -1.36283,-0.5027 -1.31918,-0.6082 -1.26739,-0.7098 -1.20779,-0.807 -1.1408,-0.8993 -1.0667,-0.986 -0.986,-1.0667 -0.899301,-1.1408 -0.8069996,-1.20779 -0.7098,-1.267391 -0.6082,-1.31918 -0.5027,-1.36283 -0.3943,-1.39808 -0.2834,-1.4247 -0.1708,-1.44254 -0.057,-1.45149 0.057,-1.45149 0.1708,-1.44254 0.2834,-1.4247 0.3943,-1.39808 0.5027,-1.36283 0.6082,-1.31918 0.7098,-1.26739 0.8069996,-1.20779 0.899301,-1.1408 0.986,-1.0667 1.0667,-0.986 1.1408,-0.8993 1.20779,-0.807 1.26739,-0.7098 1.31918,-0.6082 1.36283,-0.5027 1.39808,-0.3943 1.4247,-0.2834 L 23.54851,50.057 25,50 l 1.45149,0.057 1.44254,0.1708 1.4247,0.2834 1.39808,0.3943 1.36283,0.5027 1.31918,0.6082 1.26739,0.7098 1.20779,0.807 1.1408,0.8993 1.0667,0.986 0.986,1.0667 0.8993,1.1408 0.807,1.20779 0.7098,1.26739 0.6082,1.31918 0.5027,1.36283 0.3943,1.39808 0.2834,1.4247 z m -18.364555,2.448392 0.07799,-0.0092 0.07701,-0.01532 0.07556,-0.02132 0.07367,-0.02718 0.0713,-0.03287 0.06851,-0.03838 0.06529,-0.04362 0.06166,-0.04862 0.05765,-0.0533 0.0533,-0.05765 0.04861,-0.06166 0.04362,-0.06529 0.03838,-0.06851 0.03287,-0.0713 0.02718,-0.07367 0.02132,-0.07556 0.01532,-0.07701 0.0092,-0.07799 0.0031,-0.07845 -0.0031,-0.07845 -0.0092,-0.07799 -0.01532,-0.07701 -0.02132,-0.07556 -0.02718,-0.07367 -0.03287,-0.0713 -0.03838,-0.06851 -0.04362,-0.06529 -0.04861,-0.06166 -0.0533,-0.05765 -0.05765,-0.0533 -0.06166,-0.04861 -0.06529,-0.04363 -0.06851,-0.03837 -0.0713,-0.03287 -0.07367,-0.02718 -0.07556,-0.02132 -0.07701,-0.01532 -0.07799,-0.0092 -0.07844,-0.0031 -0.07845,0.0031 -0.07799,0.0092 -0.07701,0.01532 -0.07556,0.02132 -0.07367,0.02718 -0.0713,0.03287 -0.06851,0.03837 -0.06529,0.04363 -0.06166,0.04861 -0.05765,0.0533 -0.0533,0.05765 -0.04862,0.06166 -0.04362,0.06529 -0.03838,0.06851 -0.03287,0.0713 -0.02718,0.07367 -0.02132,0.07556 -0.01532,0.07701 -0.0092,0.07799 -0.0031,0.07845 0.0031,0.07845 0.0092,0.07799 0.01532,0.07701 0.02132,0.07556 0.02718,0.07367 0.03287,0.0713 0.03838,0.06851 0.04362,0.06529 0.04862,0.06166 0.0533,0.05765 0.05765,0.0533 0.06166,0.04862 0.06529,0.04362 0.06851,0.03838 0.0713,0.03287 0.07367,0.02718 0.07556,0.02132 0.07701,0.01532 0.07799,0.0092 0.07845,0.0031 z"
     inkscape:connector-curvature="0"
     style="fill:#d3d3d3;stroke:#000000;stroke-width:0.5" />
  <g
     id="g2829">
    <ellipse
       style="opacity:0.98999999;fill:#cccccc;fill-opacity:1;stroke:#999999;stroke-width:0.35479236;stroke-miterlimit:4;stroke-dasharray:none;stroke-opacity:1"
       id="ellipse2823"
       cx="24.987381"
       cy="66.949539"
       rx="68.526009"
       ry="69.245102" />
    <path
       id="path2825"
       d="M 110,68.5 67.5,-5.1122001 h -85.000001 l -42.5,73.6122001 42.5,73.6122 H 67.5 Z M 48.0318,45.4054 46.5853,45.2725 45.1536,45.0265 43.7457,44.6689 42.3702,44.202 41.0355,43.6286 39.75,42.9523 38.5215,42.1771 37.3576,41.308 36.2654,40.3502 35.2518,39.3097 34.32295,38.1929 33.48459,37.0066 32.74188,35.7582 32.0994,34.4554 l -0.53827,-1.3492 -0.43076,-1.3873 -0.32059,-1.4168 -0.20845,-1.4375 -0.095,-1.4495 0.01901,-1.4525 0.13292,-1.4465 0.24601,-1.4317 0.35756,-1.4079 0.46693,-1.3755 0.57341,-1.3347 0.67635,-1.2855 0.77514,-1.2285 0.86913,-1.1639 0.95781,-1.0922 1.0405,-1.0136 1.1168,-0.9288 1.1863,-0.8384 1.2484,-0.7427 1.3028,-0.6425 1.3492,-0.5383001 1.3872,-0.4307 1.4168,-0.3206 1.4376,-0.2085 1.4495,-0.095 1.4525,0.019 1.4465,0.133 1.4317,0.246 1.4079,0.3575 1.3755,0.4669 1.3346,0.5735001 1.2856,0.6763 1.2285,0.7751 1.1639,0.8692 1.0922,0.9578 1.0136,1.0405 0.9288,1.1168 0.8384,1.1863 0.7427,1.2483 0.6425,1.3029 0.5383,1.3492 0.4307,1.3872 0.3206,1.4168 0.2085,1.4376 0.095,1.4495 -0.0191,1.4525 -0.1329,1.4465 -0.246,1.4316 -0.3575,1.408 -0.467,1.3755 -0.5734,1.3346 -0.6763,1.2856 -0.7752,1.2285 -0.8691,1.1639 -0.9578,1.0921 -1.0405,1.0137 -1.1168,0.9288 -1.1863,0.8384 -1.2484,0.7427 -1.3028,0.6425 -1.3492,0.5383 -1.3873,0.4307 -1.4167,0.3206 -1.4376,0.2084 -1.4495,0.0951 z m 1.0727,-17.4801 0.0777,-0.0113 0.0766,-0.0173 0.075,-0.0233 0.0729,-0.0291 0.0705,-0.0347 0.0674,-0.0401 0.0641,-0.0454 0.0604,-0.0502 0.0563,-0.0548 0.0517,-0.059 0.047,-0.0629 0.0419,-0.0664 0.0366,-0.0695 0.031,-0.0721 0.0252,-0.0744 0.0193,-0.0761 0.0133,-0.0774 0.0072,-0.0782 10e-4,-0.0785 L 49.9945,26.8263 49.9832,26.7486 49.9659,26.672 49.9426,26.597 49.9135,26.524 49.8788,26.4536 49.8387,26.3862 49.7934,26.322 49.7431,26.2617 49.6884,26.2054 49.6293,26.1536 49.5664,26.1067 49.5,26.0648 49.4305,26.0282 49.3584,25.9972 49.284,25.972 l -0.0761,-0.0194 -0.0774,-0.0133 -0.0782,-0.0071 -0.0785,-0.0011 -0.0783,0.0052 -0.0777,0.0112 -0.0766,0.0174 -0.075,0.0232 -0.0729,0.0291 -0.0705,0.0348 -0.0674,0.0401 -0.0642,0.0453 -0.0603,0.0502 -0.0563,0.0548 -0.0517,0.0591 -0.047,0.0629 -0.0419,0.0664 -0.0366,0.0695 -0.031,0.0721 -0.0252,0.0744 -0.0193,0.0761 -0.0134,0.0774 -0.0071,0.0781 -0.0011,0.0786 0.0052,0.0783 0.0112,0.0777 0.0174,0.0766 0.0233,0.075 0.029,0.0729 0.0348,0.0704 0.0401,0.0675 0.0453,0.0642 0.0503,0.0603 0.0547,0.0563 0.0591,0.0517 0.0629,0.047 0.0664,0.0419 0.0695,0.0366 0.0721,0.031 0.0744,0.0252 0.0761,0.0193 0.0774,0.0133 0.0782,0.0072 0.0785,0.0011 z M -0.93380058,45.3294 -2.3714006,45.121 l -1.4167,-0.3206 -1.3873,-0.4307 -1.3492,-0.5383 -1.3028,-0.6425 -1.2484,-0.7427 -1.1863004,-0.8384 -1.1168,-0.9288 -1.0405,-1.0137 -0.9578,-1.0921 -0.8691,-1.1639 -0.7752,-1.2285 -0.6763,-1.2856 -0.5734,-1.3346 -0.467,-1.3755 -0.3575,-1.408 -0.246,-1.4316 -0.1329,-1.4465 -0.0191,-1.4525 0.095,-1.4495 0.2085,-1.4376 0.3206,-1.4168 0.4307,-1.3872 0.5383,-1.3492 0.6425,-1.3029 0.7427,-1.2483 0.8384,-1.1863 0.9288,-1.1168 1.0136,-1.0405 1.0922,-0.9578 1.1639004,-0.8692 1.2285,-0.7751 1.2856,-0.6763 1.3346,-0.5735001 1.3755,-0.4669 1.4079,-0.3575 1.4317,-0.246 1.44650002,-0.133 1.45249998,-0.019 1.4495,0.095 1.4376,0.2085 1.4168,0.3206 1.3872,0.4307 1.3492,0.5383001 1.3028,0.6425 1.2484006,0.7427 1.1863,0.8384 1.1168,0.9288 1.0405,1.0136 0.95781,1.0922 0.86913,1.1639 0.77514,1.2285 0.67635,1.2855 0.57341,1.3347 0.46693,1.3755 0.35756,1.4079 0.24601,1.4317 0.13292,1.4465 0.01901,1.4525 -0.095,1.4495 -0.20845,1.4375 -0.32059,1.4168 -0.43076,1.3873 -0.53827,1.3492 -0.64248,1.3028 -0.74271,1.2484 -0.83836,1.1863 -0.92885,1.1168 -1.0136,1.0405 -1.0922,0.9578 -1.1639,0.8691 -1.228501,0.7752 -1.2854996,0.6763 -1.3347,0.5734 -1.3755,0.4669 -1.4079,0.3576 -1.4317,0.246 -1.4465,0.1329 -1.45249998,0.0191 z m 1.98609998,-17.4 0.0782,-0.0072 0.0774,-0.0133 0.0761,-0.0193 0.0744,-0.0252 0.0721,-0.031 0.0695,-0.0366 0.0664,-0.0419 0.0629,-0.047 0.0591,-0.0517 0.0547,-0.0563 0.0503,-0.0603 0.0453,-0.0642 0.0401,-0.0675 0.0348,-0.0704 0.029,-0.0729 0.0233,-0.075 0.0174,-0.0766 0.0112,-0.0777 0.005,-0.0783 -10e-4,-0.0786 -0.007,-0.0781 -0.0134,-0.0774 -0.0193,-0.0761 -0.0252,-0.0744 -0.031,-0.0721 -0.0366,-0.0695 -0.0419,-0.0664 -0.047,-0.0629 -0.0517,-0.0591 -0.0563,-0.0548 -0.0603,-0.0502 -0.0642,-0.0453 -0.0674,-0.0401 -0.0705,-0.0348 -0.0729,-0.0291 -0.075,-0.0232 -0.0766,-0.0174 -0.0777,-0.0112 -0.0783,-0.0052 -0.0785,0.0011 -0.0782,0.0071 -0.0774,0.0133 -0.0761,0.0194 -0.0744,0.0252 -0.0721,0.031 -0.0695,0.0366 -0.0664,0.0419 -0.0629,0.0469 -0.0591,0.0518 -0.0547,0.0563 -0.0503,0.0603 -0.0453,0.0642 -0.0401,0.0674 -0.0347,0.0704 -0.0291,0.073 -0.0233,0.075 -0.0173,0.0766 -0.0113,0.0777 -0.005,0.0783 0.001,0.0785 0.007,0.0782 0.0133,0.0774 0.0193,0.0761 0.0252,0.0744 0.031,0.0721 0.0366,0.0695 0.0419,0.0664 0.047,0.0629 0.0517,0.059 0.0563,0.0548 0.0604,0.0502 0.0641,0.0454 0.0674,0.0401 0.0705,0.0347 0.0729,0.0291 0.075,0.0233 0.0766,0.0173 0.0777,0.0113 0.0783,0.0052 z M 55.9082,61.42036 l 0.6082,-1.31918 0.7098,-1.26739 0.807,-1.20779 0.8993,-1.1408 0.986,-1.0667 1.0667,-0.986 1.1408,-0.8993 1.2078,-0.807 1.2674,-0.7098 1.3191,-0.6082 1.3629,-0.5027 1.3981,-0.3943 L 70.106,50.2278 71.5485,50.057 73,50 l 1.4515,0.057 1.4425,0.1708 1.4247,0.2834 1.3981,0.3943 1.3628,0.5027 1.319201,0.6082 1.2674,0.7098 1.2078,0.807 1.1408,0.8993 1.0667,0.986 0.986,1.0667 0.8993,1.1408 0.807,1.20779 0.7098,1.26739 0.6082,1.31918 0.5027,1.36283 0.3943,1.39808 0.2834,1.4247 0.1708,1.44254 0.057,1.45149 -0.057,1.45149 -0.1708,1.44254 -0.2834,1.4247 -0.3943,1.39808 -0.5027,1.36283 -0.6082,1.31918 -0.7098,1.267391 -0.807,1.20779 -0.8993,1.1408 -0.986,1.0667 -1.0667,0.986 -1.1408,0.8993 -1.2078,0.807 -1.2674,0.7098 -1.319201,0.6082 -1.3628,0.5027 -1.3981,0.3943 -1.4247,0.2834 -1.4425,0.1708 -1.4515,0.057 -1.4515,-0.057 -1.4425,-0.1708 -1.4247,-0.2834 -1.3981,-0.3943 -1.3629,-0.5027 -1.3191,-0.6082 -1.2674,-0.7098 -1.2078,-0.807 -1.1408,-0.8993 -1.0667,-0.986 -0.986,-1.0667 -0.8993,-1.1408 -0.807,-1.20779 L 56.5164,76.89882 55.9082,75.57964 55.4054,74.21681 55.0112,72.81873 54.7278,71.39403 54.557,69.95149 54.5,68.5 l 0.057,-1.45149 0.1708,-1.44254 0.2834,-1.4247 0.3942,-1.39808 z m 17.1703,8.076542 0.0779,-0.0092 0.077,-0.01532 0.0756,-0.02132 0.0737,-0.02718 0.0713,-0.03287 0.0685,-0.03838 0.0653,-0.04362 0.0616,-0.04862 0.0577,-0.0533 0.0533,-0.05765 0.0486,-0.06166 0.0436,-0.06529 0.0384,-0.06851 0.0329,-0.0713 0.0271,-0.07367 0.0214,-0.07556 0.0153,-0.07701 0.0092,-0.07799 0.0031,-0.07845 -0.0031,-0.07845 -0.0092,-0.07799 -0.0153,-0.07701 -0.0214,-0.07556 -0.0271,-0.07367 -0.0329,-0.0713 -0.0384,-0.06851 -0.0436,-0.06529 -0.0486,-0.06166 -0.0533,-0.05765 -0.0577,-0.0533 -0.0616,-0.04861 -0.0653,-0.04363 -0.0685,-0.03837 -0.0713,-0.03287 -0.0737,-0.02718 -0.0756,-0.02132 -0.077,-0.01532 -0.0779,-0.0092 -0.0785,-0.0031 -0.0785,0.0031 -0.0779,0.0092 -0.077,0.01532 -0.0756,0.02132 -0.0737,0.02718 -0.0713,0.03287 -0.0685,0.03837 -0.0653,0.04363 -0.0617,0.04861 -0.0576,0.0533 -0.0533,0.05765 -0.0486,0.06166 -0.0436,0.06529 -0.0384,0.06851 -0.0329,0.0713 -0.0272,0.07367 -0.0213,0.07556 -0.0153,0.07701 -0.0092,0.07799 -0.0031,0.07845 0.0031,0.07845 0.0092,0.07799 0.0153,0.07701 0.0213,0.07556 0.0272,0.07367 0.0329,0.0713 0.0384,0.06851 0.0436,0.06529 0.0486,0.06166 0.0533,0.05765 0.0576,0.0533 0.0617,0.04862 0.0653,0.04362 0.0685,0.03838 0.0713,0.03287 0.0737,0.02718 0.0756,0.02132 0.077,0.01532 0.0779,0.0092 0.0785,0.0031 z m -97.530001,17.446099 -1.4425,-0.1708 -1.4247,-0.2834 -1.3981,-0.3943 -1.3628,-0.5027 -1.3192,-0.6082 -1.2674,-0.7098 -1.2078,-0.807 -1.1408,-0.8993 -1.0667,-0.986 -0.986,-1.0667 -0.8993,-1.1408 -0.807,-1.20779 -0.7098,-1.267391 -0.6082,-1.31918 -0.5027,-1.36283 -0.3943,-1.39808 -0.2834,-1.4247 -0.1708,-1.44254 -0.057,-1.45149 0.057,-1.45149 0.1708,-1.44254 0.2834,-1.4247 0.3943,-1.39808 0.5027,-1.36283 0.6082,-1.31918 0.7098,-1.26739 0.807,-1.20779 0.8993,-1.1408 0.986,-1.0667 1.0667,-0.986 1.1408,-0.8993 1.2078,-0.807 1.2674,-0.7098 1.3192,-0.6082 1.3628,-0.5027 1.3981,-0.3943 1.4247,-0.2834 1.4425,-0.1708 1.4515,-0.057 1.4515,0.057 1.4425,0.1708 1.4247,0.2834 1.3981,0.3943 1.3629,0.5027 1.3191,0.6082 1.2674,0.7098 1.2078,0.807 1.1408,0.8993 1.0667004,0.986 0.986,1.0667 0.8993,1.1408 0.807,1.20779 0.7098,1.26739 0.6082,1.31918 0.5028,1.36283 0.3942,1.39808 0.2834,1.4247 0.1708,1.44254 0.057,1.45149 -0.057,1.45149 -0.1708,1.44254 -0.2834,1.4247 -0.3942,1.39808 -0.5028,1.36283 -0.6082,1.31918 -0.7098,1.267391 -0.807,1.20779 -0.8993,1.1408 -0.986,1.0667 -1.0667004,0.986 -1.1408,0.8993 -1.2078,0.807 -1.2674,0.7098 -1.3191,0.6082 -1.3629,0.5027 -1.3981,0.3943 -1.4247,0.2834 -1.4425,0.1708 -1.4515,0.057 z m 1.53,-17.446099 0.0779,-0.0092 0.077,-0.01532 0.0756,-0.02132 0.0737,-0.02718 0.0713,-0.03287 0.0685,-0.03838 0.0653,-0.04362 0.0617,-0.04862 0.0576,-0.0533 0.0533,-0.05765 0.0486,-0.06166 0.0436,-0.06529 0.0384,-0.06851 0.0329,-0.0713 0.0272,-0.07367 0.0213,-0.07556 0.0153,-0.07701 0.009,-0.07799 0.003,-0.07845 -0.003,-0.07845 -0.009,-0.07799 -0.0153,-0.07701 -0.0213,-0.07556 -0.0272,-0.07367 -0.0329,-0.0713 -0.0384,-0.06851 -0.0436,-0.06529 -0.0486,-0.06166 -0.0533,-0.05765 -0.0576,-0.0533 -0.0617,-0.04861 -0.0653,-0.04363 -0.0685,-0.03837 -0.0713,-0.03287 -0.0737,-0.02718 -0.0756,-0.02132 -0.077,-0.01532 -0.0779,-0.0092 -0.0785,-0.0031 -0.0785,0.0031 -0.0779,0.0092 -0.077,0.01532 -0.0756,0.02132 -0.0737,0.02718 -0.0713,0.03287 -0.0685,0.03837 -0.0653,0.04363 -0.0616,0.04861 -0.0577,0.0533 -0.0533,0.05765 -0.0486,0.06166 -0.0436,0.06529 -0.0384,0.06851 -0.0329,0.0713 -0.0271,0.07367 -0.0214,0.07556 -0.0153,0.07701 -0.009,0.07799 -0.003,0.07845 0.003,0.07845 0.009,0.07799 0.0153,0.07701 0.0214,0.07556 0.0271,0.07367 0.0329,0.0713 0.0384,0.06851 0.0436,0.06529 0.0486,0.06166 0.0533,0.05765 0.0577,0.0533 0.0616,0.04862 0.0653,0.04362 0.0685,0.03838 0.0713,0.03287 0.0737,0.02718 0.0756,0.02132 0.077,0.01532 0.0779,0.0092 0.0785,0.0031 z m 22.95330042,59.046998 -1.44650002,-0.133 -1.4317,-0.246 -1.4079,-0.3575 -1.3755,-0.4669 -1.3346,-0.5735 -1.2856,-0.6763 -1.2285,-0.7751 -1.1639004,-0.8692 -1.0922,-0.9578 -1.0136,-1.0405 -0.9288,-1.1168 -0.8384,-1.1863 -0.7427,-1.2483 -0.6425,-1.3029 -0.5383,-1.3492 -0.4307,-1.3872 -0.3206,-1.4168 -0.2085,-1.4376 -0.095,-1.4495 0.0191,-1.4525 0.1329,-1.4465 0.246,-1.4316 0.3575,-1.408 0.467,-1.3755 0.5734,-1.3346 0.6763,-1.2856 0.7752,-1.228499 0.8691,-1.1639 0.9578,-1.0921 1.0405,-1.0137 1.1168,-0.9288 1.1863004,-0.8384 1.2484,-0.7427 1.3028,-0.6425 1.3492,-0.5383 1.3873,-0.4307 1.4167,-0.3206 1.43760002,-0.2084 1.4495,-0.0951 1.45249998,0.0191 1.4465,0.1329 1.4317,0.246 1.4079,0.3576 1.3755,0.4669 1.3347,0.5734 1.2854996,0.6763 1.228501,0.7752 1.1639,0.8691 1.0922,0.9578 1.0136,1.0405 0.92885,1.1168 0.83836,1.1863 0.74271,1.248399 0.64248,1.3028 0.53827,1.3492 0.43076,1.3873 0.32059,1.4168 0.20845,1.4375 0.095,1.4495 -0.01901,1.4525 -0.13292,1.4465 -0.24601,1.4317 -0.35756,1.4079 -0.46693,1.3755 -0.57341,1.3347 -0.67635,1.2855 -0.77514,1.2285 -0.86913,1.1639 -0.95781,1.0922 -1.0405,1.0136 -1.1168,0.9288 -1.1863,0.8384 -1.2484006,0.7427 -1.3028,0.6425 -1.3492,0.5383 -1.3872,0.4307 -1.4168,0.3206 -1.4376,0.2085 -1.4495,0.095 z m 1.07269998,-17.4802 0.0777,-0.0112 0.0766,-0.0174 0.075,-0.0232 0.0729,-0.0291 0.0705,-0.0348 0.0674,-0.0401 0.0642,-0.0453 0.0603,-0.0502 0.0563,-0.0548 0.0517,-0.0591 0.047,-0.0629 0.0419,-0.0664 0.0366,-0.0695 0.031,-0.0721 0.0252,-0.0744 0.0193,-0.0761 0.0134,-0.0774 0.007,-0.0781 10e-4,-0.0786 -0.005,-0.0783 -0.0112,-0.0777 -0.0174,-0.0766 -0.0233,-0.075 -0.029,-0.0729 -0.0348,-0.0704 -0.0401,-0.0675 -0.0453,-0.0642 -0.0503,-0.0603 -0.0547,-0.0563 -0.0591,-0.0517 -0.0629,-0.047 -0.0664,-0.0419 -0.0695,-0.0366 -0.0721,-0.031 -0.0744,-0.0252 -0.0761,-0.0193 -0.0774,-0.0133 -0.0782,-0.007 -0.0785,-0.001 -0.0783,0.005 -0.0777,0.0113 -0.0766,0.0173 -0.075,0.0233 -0.0729,0.0291 -0.0705,0.0347 -0.0674,0.0401 -0.0641,0.0454 -0.0604,0.0502 -0.0563,0.0548 -0.0517,0.059 -0.047,0.0629 -0.0419,0.0664 -0.0366,0.0695 -0.031,0.0721 -0.0252,0.0744 -0.0193,0.0761 -0.0133,0.0774 -0.007,0.0782 -0.001,0.0785 0.005,0.0783 0.0113,0.0777 0.0173,0.0766 0.0233,0.075 0.0291,0.073 0.0347,0.0704 0.0401,0.0674 0.0453,0.0642 0.0503,0.0603 0.0547,0.0563 0.0591,0.0518 0.0629,0.0469 0.0664,0.0419 0.0695,0.0366 0.0721,0.031 0.0744,0.0252 0.0761,0.0194 0.0774,0.0133 0.0782,0.007 0.0785,0.001 z m 45.9617006,17.4042 -1.4376,-0.2085 -1.4168,-0.3206 -1.3872,-0.4307 -1.3492,-0.5383 -1.3028,-0.6425 -1.2484,-0.7427 -1.1863,-0.8384 -1.1168,-0.9288 -1.0405,-1.0136 -0.95781,-1.0922 -0.86913,-1.1639 -0.77514,-1.2285 -0.67635,-1.2855 -0.57341,-1.3347 -0.46693,-1.3755 -0.35756,-1.4079 -0.24601,-1.4317 -0.13292,-1.4465 -0.01901,-1.4525 0.095,-1.4495 0.20845,-1.4375 0.32059,-1.4168 0.43076,-1.3873 0.53827,-1.3492 0.64248,-1.3028 0.74271,-1.248399 0.83836,-1.1863 0.92885,-1.1168 1.0136,-1.0405 1.0922,-0.9578 1.1639,-0.8691 1.2285,-0.7752 1.2855,-0.6763 1.3347,-0.5734 1.3755,-0.4669 1.4079,-0.3576 1.4317,-0.246 1.4465,-0.1329 1.4525,-0.0191 1.4495,0.0951 1.4376,0.2084 1.4167,0.3206 1.3873,0.4307 1.3492,0.5383 1.3028,0.6425 1.2484,0.7427 1.1863,0.8384 1.1168,0.9288 1.0405,1.0137 0.9578,1.0921 0.8691,1.1639 0.7752,1.228499 0.6763,1.2856 0.5734,1.3346 0.467,1.3755 0.3575,1.408 0.246,1.4316 0.1329,1.4465 0.0191,1.4525 -0.095,1.4495 -0.2085,1.4376 -0.3206,1.4168 -0.4307,1.3872 -0.5383,1.3492 -0.6425,1.3029 -0.7427,1.2483 -0.8384,1.1863 -0.9288,1.1168 -1.0136,1.0405 -1.0922,0.9578 -1.1639,0.8692 -1.2285,0.7751 -1.2856,0.6763 -1.3346,0.5735 -1.3755,0.4669 -1.4079,0.3575 -1.4317,0.246 -1.4465,0.133 -1.4525,0.019 z m 1.9861,-17.4001 0.0782,-0.007 0.0774,-0.0133 0.0761,-0.0194 0.0744,-0.0252 0.0721,-0.031 0.0695,-0.0366 0.0664,-0.0419 0.0629,-0.0469 0.0591,-0.0518 0.0547,-0.0563 0.0503,-0.0603 0.0453,-0.0642 0.0401,-0.0674 0.0347,-0.0704 0.0291,-0.073 0.0233,-0.075 0.0173,-0.0766 0.0113,-0.0777 0.0051,-0.0783 -10e-4,-0.0785 -0.0072,-0.0782 -0.0133,-0.0774 -0.0193,-0.0761 -0.0252,-0.0744 -0.031,-0.0721 -0.0366,-0.0695 -0.0419,-0.0664 -0.047,-0.0629 -0.0517,-0.059 -0.0563,-0.0548 -0.0604,-0.0502 -0.0641,-0.0454 -0.0674,-0.0401 -0.0705,-0.0347 -0.0729,-0.0291 -0.075,-0.0233 -0.0766,-0.0173 -0.0777,-0.0113 -0.0783,-0.005 -0.0785,0.001 -0.0782,0.007 -0.0774,0.0133 -0.0761,0.0193 -0.0744,0.0252 -0.0721,0.031 -0.0695,0.0366 -0.0664,0.0419 -0.0629,0.047 -0.0591,0.0517 -0.0547,0.0563 -0.0503,0.0603 -0.0453,0.0642 -0.0401,0.0675 -0.0348,0.0704 -0.029,0.0729 -0.0233,0.075 -0.0174,0.0766 -0.0112,0.0777 -0.0052,0.0783 0.0011,0.0786 0.0071,0.0781 0.0134,0.0774 0.0193,0.0761 0.0252,0.0744 0.031,0.0721 0.0366,0.0695 0.0419,0.0664 0.047,0.0629 0.0517,0.0591 0.0563,0.0548 0.0603,0.0502 0.0642,0.0453 0.0674,0.0401 0.0705,0.0348 0.0729,0.0291 0.075,0.0232 0.0766,0.0174 0.0777,0.0112 0.0783,0.005 z M 43.443,67.04851 43.5,68.5 l -0.057,1.45149 -0.1708,1.44254 -0.2834,1.4247 -0.3943,1.39808 -0.5027,1.36283 -0.6082,1.31918 -0.7098,1.267391 -0.807,1.20779 -0.8993,1.1408 -0.986,1.0667 -1.0667,0.986 -1.1408,0.8993 -1.20779,0.807 -1.26739,0.7098 -1.31918,0.6082 -1.36283,0.5027 -1.39808,0.3943 -1.4247,0.2834 -1.44254,0.1708 -1.45149,0.057 -1.45149,-0.057 -1.44254,-0.1708 -1.4247,-0.2834 -1.39808,-0.3943 -1.36283,-0.5027 -1.31918,-0.6082 -1.26739,-0.7098 -1.20779,-0.807 -1.1408,-0.8993 -1.0667,-0.986 -0.986,-1.0667 -0.899301,-1.1408 -0.8069996,-1.20779 -0.7098,-1.267391 -0.6082,-1.31918 -0.5027,-1.36283 -0.3943,-1.39808 -0.2834,-1.4247 -0.1708,-1.44254 -0.057,-1.45149 0.057,-1.45149 0.1708,-1.44254 0.2834,-1.4247 0.3943,-1.39808 0.5027,-1.36283 0.6082,-1.31918 0.7098,-1.26739 0.8069996,-1.20779 0.899301,-1.1408 0.986,-1.0667 1.0667,-0.986 1.1408,-0.8993 1.20779,-0.807 1.26739,-0.7098 1.31918,-0.6082 1.36283,-0.5027 1.39808,-0.3943 1.4247,-0.2834 L 23.54851,50.057 25,50 l 1.45149,0.057 1.44254,0.1708 1.4247,0.2834 1.39808,0.3943 1.36283,0.5027 1.31918,0.6082 1.26739,0.7098 1.20779,0.807 1.1408,0.8993 1.0667,0.986 0.986,1.0667 0.8993,1.1408 0.807,1.20779 0.7098,1.26739 0.6082,1.31918 0.5027,1.36283 0.3943,1.39808 0.2834,1.4247 z m -18.364555,2.448392 0.07799,-0.0092 0.07701,-0.01532 0.07556,-0.02132 0.07367,-0.02718 0.0713,-0.03287 0.06851,-0.03838 0.06529,-0.04362 0.06166,-0.04862 0.05765,-0.0533 0.0533,-0.05765 0.04861,-0.06166 0.04362,-0.06529 0.03838,-0.06851 0.03287,-0.0713 0.02718,-0.07367 0.02132,-0.07556 0.01532,-0.07701 0.0092,-0.07799 0.0031,-0.07845 -0.0031,-0.07845 -0.0092,-0.07799 -0.01532,-0.07701 -0.02132,-0.07556 -0.02718,-0.07367 -0.03287,-0.0713 -0.03838,-0.06851 -0.04362,-0.06529 -0.04861,-0.06166 -0.0533,-0.05765 -0.05765,-0.0533 -0.06166,-0.04861 -0.06529,-0.04363 -0.06851,-0.03837 -0.0713,-0.03287 -0.07367,-0.02718 -0.07556,-0.02132 -0.07701,-0.01532 -0.07799,-0.0092 -0.07844,-0.0031 -0.07845,0.0031 -0.07799,0.0092 -0.07701,0.01532 -0.07556,0.02132 -0.07367,0.02718 -0.0713,0.03287 -0.06851,0.03837 -0.06529,0.04363 -0.06166,0.04861 -0.05765,0.0533 -0.0533,0.05765 -0.04862,0.06166 -0.04362,0.06529 -0.03838,0.06851 -0.03287,0.0713 -0.02718,0.07367 -0.02132,0.07556 -0.01532,0.07701 -0.0092,0.07799 -0.0031,0.07845 0.0031,0.07845 0.0092,0.07799 0.01532,0.07701 0.02132,0.07556 0.02718,0.07367 0.03287,0.0713 0.03838,0.06851 0.04362,0.06529 0.04862,0.06166 0.0533,0.05765 0.05765,0.0533 0.06166,0.04862 0.06529,0.04362 0.06851,0.03838 0.0713,0.03287 0.07367,0.02718 0.07556,0.02132 0.07701,0.01532 0.07799,0.0092 0.07845,0.0031 z"
       inkscape:connector-curvature="0"
       style="fill:#d3d3d3;stroke:#000000;stroke-width:0.5" />
  </g>
</svg>
